%YAML 1.1
%TAG !u! tag:unity3d.com,2011:
--- !u!1 &309825273
GameObject:
  m_ObjectHideFlags: 0
  m_CorrespondingSourceObject: {fileID: 0}
  m_PrefabInstance: {fileID: 0}
  m_PrefabAsset: {fileID: 0}
  serializedVersion: 6
  m_Component:
  - component: {fileID: 309825274}
  - component: {fileID: 309825277}
  - component: {fileID: 309825276}
  - component: {fileID: 309825275}
  m_Layer: 0
  m_Name: Cam_Verde
  m_TagString: Untagged
  m_Icon: {fileID: 0}
  m_NavMeshLayer: 0
  m_StaticEditorFlags: 0
  m_IsActive: 1
--- !u!4 &309825274
Transform:
  m_ObjectHideFlags: 0
  m_CorrespondingSourceObject: {fileID: 0}
  m_PrefabInstance: {fileID: 0}
  m_PrefabAsset: {fileID: 0}
  m_GameObject: {fileID: 309825273}
  m_LocalRotation: {x: -0.070442036, y: 0.0014973877, z: 0.000106906584, w: 0.9975147}
  m_LocalPosition: {x: -0.18782687, y: 0.8829173, z: -5.0477195}
  m_LocalScale: {x: 1, y: 1, z: 1}
  m_Children: []
  m_Father: {fileID: 8187336201814160690}
  m_RootOrder: 3
  m_LocalEulerAnglesHint: {x: 0, y: 0, z: 0}
--- !u!20 &309825277
Camera:
  m_ObjectHideFlags: 0
  m_CorrespondingSourceObject: {fileID: 0}
  m_PrefabInstance: {fileID: 0}
  m_PrefabAsset: {fileID: 0}
  m_GameObject: {fileID: 309825273}
  m_Enabled: 1
  serializedVersion: 2
  m_ClearFlags: 1
  m_BackGroundColor: {r: 0.19215687, g: 0.3019608, b: 0.4745098, a: 0}
  m_projectionMatrixMode: 1
  m_GateFitMode: 2
  m_FOVAxisMode: 0
  m_SensorSize: {x: 36, y: 24}
  m_LensShift: {x: 0, y: 0}
  m_FocalLength: 50
  m_NormalizedViewPortRect:
    serializedVersion: 2
    x: 0.5
    y: 0
    width: 0.5
    height: 1
  near clip plane: 0.3
  far clip plane: 1000
  field of view: 65
  orthographic: 0
  orthographic size: 5
  m_Depth: 0
  m_CullingMask:
    serializedVersion: 2
    m_Bits: 4294967295
  m_RenderingPath: -1
  m_TargetTexture: {fileID: 0}
  m_TargetDisplay: 0
  m_TargetEye: 3
  m_HDR: 1
  m_AllowMSAA: 1
  m_AllowDynamicResolution: 0
  m_ForceIntoRT: 0
  m_OcclusionCulling: 1
  m_StereoConvergence: 10
  m_StereoSeparation: 0.022
--- !u!81 &309825276
AudioListener:
  m_ObjectHideFlags: 0
  m_CorrespondingSourceObject: {fileID: 0}
  m_PrefabInstance: {fileID: 0}
  m_PrefabAsset: {fileID: 0}
  m_GameObject: {fileID: 309825273}
  m_Enabled: 1
--- !u!1818360608 &309825275
PositionConstraint:
  m_ObjectHideFlags: 0
  m_CorrespondingSourceObject: {fileID: 0}
  m_PrefabInstance: {fileID: 0}
  m_PrefabAsset: {fileID: 0}
  m_GameObject: {fileID: 309825273}
  m_Enabled: 1
  m_Weight: 1
  m_TranslationAtRest: {x: -0.18782687, y: 0.8829173, z: -5.0477195}
  m_TranslationOffset: {x: -0.18782687, y: 0.8829173, z: -5.0477195}
  m_AffectTranslationX: 1
  m_AffectTranslationY: 1
  m_AffectTranslationZ: 1
  m_IsContraintActive: 1
  m_IsLocked: 1
  m_Sources:
  - sourceTransform: {fileID: 8187336201814160690}
    weight: 1
--- !u!1 &1360618678
GameObject:
  m_ObjectHideFlags: 0
  m_CorrespondingSourceObject: {fileID: 0}
  m_PrefabInstance: {fileID: 0}
  m_PrefabAsset: {fileID: 0}
  serializedVersion: 6
  m_Component:
  - component: {fileID: 1360618679}
  - component: {fileID: 1360618682}
  - component: {fileID: 1360618681}
  - component: {fileID: 1360618680}
  m_Layer: 0
  m_Name: Cuerpo_Verde
  m_TagString: Untagged
  m_Icon: {fileID: 0}
  m_NavMeshLayer: 0
  m_StaticEditorFlags: 0
  m_IsActive: 1
--- !u!4 &1360618679
Transform:
  m_ObjectHideFlags: 0
  m_CorrespondingSourceObject: {fileID: 0}
  m_PrefabInstance: {fileID: 0}
  m_PrefabAsset: {fileID: 0}
  m_GameObject: {fileID: 1360618678}
  m_LocalRotation: {x: 0, y: 0, z: 0, w: 1}
  m_LocalPosition: {x: -0.026384499, y: 0, z: -0.042473212}
  m_LocalScale: {x: 1, y: 0.45000002, z: 1.0500001}
  m_Children: []
  m_Father: {fileID: 8187336201814160690}
  m_RootOrder: 4
  m_LocalEulerAnglesHint: {x: 0, y: 0, z: 0}
--- !u!33 &1360618682
MeshFilter:
  m_ObjectHideFlags: 0
  m_CorrespondingSourceObject: {fileID: 0}
  m_PrefabInstance: {fileID: 0}
  m_PrefabAsset: {fileID: 0}
  m_GameObject: {fileID: 1360618678}
  m_Mesh: {fileID: 10208, guid: 0000000000000000e000000000000000, type: 0}
--- !u!23 &1360618681
MeshRenderer:
  m_ObjectHideFlags: 0
  m_CorrespondingSourceObject: {fileID: 0}
  m_PrefabInstance: {fileID: 0}
  m_PrefabAsset: {fileID: 0}
  m_GameObject: {fileID: 1360618678}
  m_Enabled: 0
  m_CastShadows: 1
  m_ReceiveShadows: 1
  m_DynamicOccludee: 1
  m_MotionVectors: 1
  m_LightProbeUsage: 1
  m_ReflectionProbeUsage: 1
  m_RayTracingMode: 2
  m_RenderingLayerMask: 1
  m_RendererPriority: 0
  m_Materials:
  - {fileID: 10303, guid: 0000000000000000f000000000000000, type: 0}
  m_StaticBatchInfo:
    firstSubMesh: 0
    subMeshCount: 0
  m_StaticBatchRoot: {fileID: 0}
  m_ProbeAnchor: {fileID: 0}
  m_LightProbeVolumeOverride: {fileID: 0}
  m_ScaleInLightmap: 1
  m_ReceiveGI: 1
  m_PreserveUVs: 0
  m_IgnoreNormalsForChartDetection: 0
  m_ImportantGI: 0
  m_StitchLightmapSeams: 1
  m_SelectedEditorRenderState: 3
  m_MinimumChartSize: 4
  m_AutoUVMaxDistance: 0.5
  m_AutoUVMaxAngle: 89
  m_LightmapParameters: {fileID: 0}
  m_SortingLayerID: 0
  m_SortingLayer: 0
  m_SortingOrder: 0
--- !u!65 &1360618680
BoxCollider:
  m_ObjectHideFlags: 0
  m_CorrespondingSourceObject: {fileID: 0}
  m_PrefabInstance: {fileID: 0}
  m_PrefabAsset: {fileID: 0}
  m_GameObject: {fileID: 1360618678}
  m_Material: {fileID: 0}
  m_IsTrigger: 0
  m_Enabled: 0
  serializedVersion: 2
  m_Size: {x: 1.5361457, y: 2.0000002, z: 1.6268976}
  m_Center: {x: 0.14373203, y: 0, z: -0.08896809}
--- !u!1 &8187336201225217108
GameObject:
  m_ObjectHideFlags: 0
  m_CorrespondingSourceObject: {fileID: 0}
  m_PrefabInstance: {fileID: 0}
  m_PrefabAsset: {fileID: 0}
  serializedVersion: 6
  m_Component:
  - component: {fileID: 8187336201225217104}
  - component: {fileID: 8187336201225217110}
  - component: {fileID: 8187336201225217105}
  - component: {fileID: 8187336201225217111}
  m_Layer: 0
  m_Name: Rayos verde
  m_TagString: Untagged
  m_Icon: {fileID: 0}
  m_NavMeshLayer: 0
  m_StaticEditorFlags: 0
  m_IsActive: 1
--- !u!4 &8187336201225217104
Transform:
  m_ObjectHideFlags: 0
  m_CorrespondingSourceObject: {fileID: 0}
  m_PrefabInstance: {fileID: 0}
  m_PrefabAsset: {fileID: 0}
  m_GameObject: {fileID: 8187336201225217108}
  m_LocalRotation: {x: -0, y: -0, z: -0, w: 1}
  m_LocalPosition: {x: 0.44713625, y: 0, z: 0}
  m_LocalScale: {x: 1, y: 1, z: 1}
  m_Children: []
  m_Father: {fileID: 8187336201483104465}
  m_RootOrder: 1
  m_LocalEulerAnglesHint: {x: 0, y: 0, z: 0}
--- !u!114 &8187336201225217110
MonoBehaviour:
  m_ObjectHideFlags: 0
  m_CorrespondingSourceObject: {fileID: 0}
  m_PrefabInstance: {fileID: 0}
  m_PrefabAsset: {fileID: 0}
  m_GameObject: {fileID: 8187336201225217108}
  m_Enabled: 1
  m_EditorHideFlags: 0
  m_Script: {fileID: 1528663654, guid: 20990ec6b45e544b0b5f28b1e0c1c96b, type: 3}
  m_Name: 
  m_EditorClassIdentifier: 
  _initialized: 1
  _reset: 0
  _version: 1.2.5
  _moved: 0
  _blocks:
  - {fileID: 8187336201225217105}
  - {fileID: 8187336201225217111}
  editor: {fileID: 0}
  _showSettings: 0
  _displayMode: 0
  _windowTitle: GameFlow
  _windowMinSize: {x: 240, y: 64}
  _windowMaxSize: {x: 600, y: 400}
--- !u!114 &8187336201225217105
MonoBehaviour:
  m_ObjectHideFlags: 3
  m_CorrespondingSourceObject: {fileID: 0}
  m_PrefabInstance: {fileID: 0}
  m_PrefabAsset: {fileID: 0}
  m_GameObject: {fileID: 8187336201225217108}
  m_Enabled: 0
  m_EditorHideFlags: 0
  m_Script: {fileID: -1282471346, guid: 20990ec6b45e544b0b5f28b1e0c1c96b, type: 3}
  m_Name: 
  m_EditorClassIdentifier: 
  _initialized: 1
  _reset: 0
  _version: 1.2.5
  _moved: 0
  _foldout: 1
  _drawSeparator: 0
  enabledInEditor: 1
  container: {fileID: 8187336201225217110}
  editor: {fileID: 0}
  _id: Salto -Y
  _rayType: 0
  _originType: 0
  _originTransform: {fileID: 8187336201814160690}
  _originVector2: {x: 0, y: 0}
  _originVector3: {x: 0, y: 0, z: 0}
  _originVar: {fileID: 0}
  _directionType: 2
  _directionTransform: {fileID: 0}
  _directionVector2: {x: 0, y: -1}
  _directionVector3: {x: 0, y: -1, z: 0}
  _directionVar: {fileID: 0}
  _length: 4
  _lengthVar: {fileID: 0}
  _color: {r: 0.15217781, g: 0, b: 1, a: 1}
--- !u!114 &8187336201225217111
MonoBehaviour:
  m_ObjectHideFlags: 3
  m_CorrespondingSourceObject: {fileID: 0}
  m_PrefabInstance: {fileID: 0}
  m_PrefabAsset: {fileID: 0}
  m_GameObject: {fileID: 8187336201225217108}
  m_Enabled: 0
  m_EditorHideFlags: 0
  m_Script: {fileID: -1282471346, guid: 20990ec6b45e544b0b5f28b1e0c1c96b, type: 3}
  m_Name: 
  m_EditorClassIdentifier: 
  _initialized: 1
  _reset: 0
  _version: 1.2.5
  _moved: 0
  _foldout: 0
  _drawSeparator: 0
  enabledInEditor: 1
  container: {fileID: 8187336201225217110}
  editor: {fileID: 0}
  _id: Rayo agarre verde
  _rayType: 0
  _originType: 0
  _originTransform: {fileID: 8187336201814160690}
  _originVector2: {x: 0, y: 0}
  _originVector3: {x: 0, y: 0, z: 0}
  _originVar: {fileID: 0}
  _directionType: 2
  _directionTransform: {fileID: 0}
  _directionVector2: {x: 0, y: 0}
  _directionVector3: {x: 0, y: 0, z: 1}
  _directionVar: {fileID: 0}
  _length: 3
  _lengthVar: {fileID: 0}
  _color: {r: 1, g: 0, b: 0.06476402, a: 1}
--- !u!1 &8187336201356291388
GameObject:
  m_ObjectHideFlags: 0
  m_CorrespondingSourceObject: {fileID: 0}
  m_PrefabInstance: {fileID: 0}
  m_PrefabAsset: {fileID: 0}
  serializedVersion: 6
  m_Component:
  - component: {fileID: 8187336201356291391}
  - component: {fileID: 8187336201356291367}
  - component: {fileID: 8187336201356291364}
  - component: {fileID: 8187336201356291365}
  - component: {fileID: 8187336201356291370}
  - component: {fileID: 8187336201356291371}
  - component: {fileID: 8187336201356291368}
  - component: {fileID: 8187336201356291369}
  - component: {fileID: 8187336201356291374}
  - component: {fileID: 8187336201356291375}
  - component: {fileID: 8187336201356291372}
  - component: {fileID: 8187336201356291373}
  - component: {fileID: 8187336201356291378}
  - component: {fileID: 8187336201356291379}
  - component: {fileID: 8187336201356291376}
  - component: {fileID: 8187336201356291377}
  - component: {fileID: 8187336201356291380}
  - component: {fileID: 8187336201356291381}
  - component: {fileID: 8187336201356291386}
  - component: {fileID: 8187336201356291387}
  - component: {fileID: 8187336201356291384}
  - component: {fileID: 8187336201356291385}
  - component: {fileID: 8187336201356291390}
  - component: {fileID: 6716727134602813076}
  - component: {fileID: 946867200820472650}
  - component: {fileID: 1778952903500386028}
  m_Layer: 0
  m_Name: GameObject verde
  m_TagString: Untagged
  m_Icon: {fileID: 0}
  m_NavMeshLayer: 0
  m_StaticEditorFlags: 0
  m_IsActive: 1
--- !u!4 &8187336201356291391
Transform:
  m_ObjectHideFlags: 0
  m_CorrespondingSourceObject: {fileID: 0}
  m_PrefabInstance: {fileID: 0}
  m_PrefabAsset: {fileID: 0}
  m_GameObject: {fileID: 8187336201356291388}
  m_LocalRotation: {x: -0, y: -0, z: -0, w: 1}
  m_LocalPosition: {x: 0.32, y: 0.396, z: 1.236}
  m_LocalScale: {x: 0, y: 1, z: 1}
  m_Children: []
  m_Father: {fileID: 8187336201483104465}
  m_RootOrder: 2
  m_LocalEulerAnglesHint: {x: 0, y: 0, z: 0}
--- !u!136 &8187336201356291367
CapsuleCollider:
  m_ObjectHideFlags: 0
  m_CorrespondingSourceObject: {fileID: 0}
  m_PrefabInstance: {fileID: 0}
  m_PrefabAsset: {fileID: 0}
  m_GameObject: {fileID: 8187336201356291388}
  m_Material: {fileID: 0}
  m_IsTrigger: 1
  m_Enabled: 1
  m_Radius: 0.5
  m_Height: 1
  m_Direction: 1
  m_Center: {x: 0, y: 0, z: 0}
--- !u!114 &8187336201356291364
MonoBehaviour:
  m_ObjectHideFlags: 0
  m_CorrespondingSourceObject: {fileID: 0}
  m_PrefabInstance: {fileID: 0}
  m_PrefabAsset: {fileID: 0}
  m_GameObject: {fileID: 8187336201356291388}
  m_Enabled: 1
  m_EditorHideFlags: 0
  m_Script: {fileID: 1528663654, guid: 20990ec6b45e544b0b5f28b1e0c1c96b, type: 3}
  m_Name: 
  m_EditorClassIdentifier: 
  _initialized: 1
  _reset: 0
  _version: 1.2.5
  _moved: 0
  _blocks:
  - {fileID: 8187336201356291368}
  - {fileID: 8187336201356291380}
  editor: {fileID: 0}
  _showSettings: 0
  _displayMode: 0
  _windowTitle: GameFlow
  _windowMinSize: {x: 240, y: 64}
  _windowMaxSize: {x: 600, y: 400}
--- !u!114 &8187336201356291365
MonoBehaviour:
  m_ObjectHideFlags: 3
  m_CorrespondingSourceObject: {fileID: 0}
  m_PrefabInstance: {fileID: 0}
  m_PrefabAsset: {fileID: 0}
  m_GameObject: {fileID: 8187336201356291388}
  m_Enabled: 0
  m_EditorHideFlags: 0
  m_Script: {fileID: 999285341, guid: 20990ec6b45e544b0b5f28b1e0c1c96b, type: 3}
  m_Name: 
  m_EditorClassIdentifier: 
  _initialized: 1
  _reset: 0
  _version: 1.2.5
  _moved: 0
  _foldout: 1
  _drawSeparator: 0
  enabledInEditor: 1
  container: {fileID: 8187336201356291390}
  editor: {fileID: 0}
  _caption: If
  _breakpoint: 0
  _conditions:
  - {fileID: 8187336201356291370}
  - {fileID: 8187336201356291373}
  _actions:
  - {fileID: 8187336201356291371}
  _elseActions: []
  _elseVisible: 0
--- !u!114 &8187336201356291370
MonoBehaviour:
  m_ObjectHideFlags: 3
  m_CorrespondingSourceObject: {fileID: 0}
  m_PrefabInstance: {fileID: 0}
  m_PrefabAsset: {fileID: 0}
  m_GameObject: {fileID: 8187336201356291388}
  m_Enabled: 0
  m_EditorHideFlags: 0
  m_Script: {fileID: 1810492686, guid: 20990ec6b45e544b0b5f28b1e0c1c96b, type: 3}
  m_Name: 
  m_EditorClassIdentifier: 
  _initialized: 1
  _reset: 0
  _version: 1.2.5
  _moved: 0
  _foldout: 1
  _drawSeparator: 0
  enabledInEditor: 1
  container: {fileID: 8187336201356291365}
  editor: {fileID: 0}
  _caption: 
  _connective: 0
  _inputType: 0
  _key: {fileID: 8187336202284258694}
  _keyVar: {fileID: 0}
  _keyCode: 101
  _keyCodeVar: {fileID: 0}
  _comparison: 0
--- !u!114 &8187336201356291371
MonoBehaviour:
  m_ObjectHideFlags: 3
  m_CorrespondingSourceObject: {fileID: 0}
  m_PrefabInstance: {fileID: 0}
  m_PrefabAsset: {fileID: 0}
  m_GameObject: {fileID: 8187336201356291388}
  m_Enabled: 0
  m_EditorHideFlags: 0
  m_Script: {fileID: 145151700, guid: 20990ec6b45e544b0b5f28b1e0c1c96b, type: 3}
  m_Name: 
  m_EditorClassIdentifier: 
  _initialized: 1
  _reset: 0
  _version: 1.2.5
  _moved: 0
  _foldout: 1
  _drawSeparator: 0
  enabledInEditor: 1
  container: {fileID: 8187336201356291365}
  editor: {fileID: 0}
  _caption: Set Position
  _breakpoint: 0
  _target: {fileID: 0}
  _targetVar: {fileID: 0}
  _space: 0
  _spaceVar: {fileID: 0}
  _mask: {x: 1, y: 1, z: 1}
  _maskVar: {fileID: 0}
  _relative: 0
  _relativeVar: {fileID: 0}
  _multiplier: 100
  _multiplierVar: {fileID: 0}
  _position: {x: 0, y: 0, z: 0}
  _positionVar: {fileID: 0}
--- !u!114 &8187336201356291368
MonoBehaviour:
  m_ObjectHideFlags: 3
  m_CorrespondingSourceObject: {fileID: 0}
  m_PrefabInstance: {fileID: 0}
  m_PrefabAsset: {fileID: 0}
  m_GameObject: {fileID: 8187336201356291388}
  m_Enabled: 0
  m_EditorHideFlags: 0
  m_Script: {fileID: -1159334221, guid: 20990ec6b45e544b0b5f28b1e0c1c96b, type: 3}
  m_Name: 
  m_EditorClassIdentifier: 
  _initialized: 1
  _reset: 0
  _version: 1.2.5
  _moved: 0
  _foldout: 1
  _drawSeparator: 0
  enabledInEditor: 1
  container: {fileID: 8187336201356291364}
  editor: {fileID: 0}
  _id: On Collision Stay
  _actions:
  - {fileID: 8187336201356291390}
  _parameters:
  - {fileID: 8187336201356291369}
  - {fileID: 8187336201356291374}
  - {fileID: 8187336201356291375}
  - {fileID: 8187336201356291372}
  _showParameters: 0
  _showSettings: 1
  _actionsFoldout: 1
  _ignorePause: 0
  _listeningRange: 0
  _listeningTarget: {fileID: 8187336201814160695}
  _listeningList: {fileID: 0}
--- !u!114 &8187336201356291369
MonoBehaviour:
  m_ObjectHideFlags: 3
  m_CorrespondingSourceObject: {fileID: 0}
  m_PrefabInstance: {fileID: 0}
  m_PrefabAsset: {fileID: 0}
  m_GameObject: {fileID: 8187336201356291388}
  m_Enabled: 0
  m_EditorHideFlags: 0
  m_Script: {fileID: 280294710, guid: 20990ec6b45e544b0b5f28b1e0c1c96b, type: 3}
  m_Name: 
  m_EditorClassIdentifier: 
  _initialized: 1
  _reset: 0
  _version: 1.2.5
  _moved: 0
  _foldout: 0
  _drawSeparator: 0
  enabledInEditor: 1
  container: {fileID: 8187336201356291368}
  editor: {fileID: 0}
  _id: Source
  _dataType: 8
  _typeName: UnityEngine.GameObject
  _indirectDataType: 0
  _indirectTypeName: 
  _defaultStringValue: 
  _defaultIntValue: 0
  _defaultFloatValue: 0
  _defaultBoolValue: 0
  _defaultVector2Value: {x: 0, y: 0}
  _defaultVector3Value: {x: 0, y: 0, z: 0}
  _defaultVector4Value: {x: 0, y: 0, z: 0, w: 0}
  _defaultRectValue:
    serializedVersion: 2
    x: 0
    y: 0
    width: 0
    height: 0
  _defaultColorValue: {r: 0, g: 0, b: 0, a: 0}
  _defaultEnumIntValue: 0
  _defaultBoundsValue:
    m_Center: {x: 0, y: 0, z: 0}
    m_Extent: {x: 0, y: 0, z: 0}
  _defaultQuaternionValue: {x: 0, y: 0, z: 0, w: 0}
  _stringValue: 
  _intValue: 0
  _floatValue: 0
  _boolValue: 1
  _vector2Value: {x: 0, y: 0}
  _vector3Value: {x: 0, y: 0, z: 0}
  _rectValue:
    serializedVersion: 2
    x: 0
    y: 0
    width: 0
    height: 0
  _colorValue: {r: 0, g: 0, b: 0, a: 1}
  _objectValue: {fileID: 0}
  _enumIntValue: 0
  _enumCached: 0
  _boundsValue:
    m_Center: {x: 0, y: 0, z: 0}
    m_Extent: {x: 0, y: 0, z: 0}
  _quaternionValue: {x: 0, y: 0, z: 0, w: 1}
  _vector4Value: {x: 0, y: 0, z: 0, w: 0}
  _animationCurveValue:
    serializedVersion: 2
    m_Curve: []
    m_PreInfinity: 2
    m_PostInfinity: 2
    m_RotationOrder: 4
  _readOnly: 1
  _private: 1
  _persistent: 0
  _indirect: 0
  _isVariant: 0
  _showDescription: 1
  _description: The GameObject which was collided and originated the event.
  _changeListeners: []
  _hidden: 0
  _display: 1
  _label: Parameter
--- !u!114 &8187336201356291374
MonoBehaviour:
  m_ObjectHideFlags: 3
  m_CorrespondingSourceObject: {fileID: 0}
  m_PrefabInstance: {fileID: 0}
  m_PrefabAsset: {fileID: 0}
  m_GameObject: {fileID: 8187336201356291388}
  m_Enabled: 0
  m_EditorHideFlags: 0
  m_Script: {fileID: 280294710, guid: 20990ec6b45e544b0b5f28b1e0c1c96b, type: 3}
  m_Name: 
  m_EditorClassIdentifier: 
  _initialized: 1
  _reset: 0
  _version: 1.2.5
  _moved: 0
  _foldout: 0
  _drawSeparator: 0
  enabledInEditor: 1
  container: {fileID: 8187336201356291368}
  editor: {fileID: 0}
  _id: Other
  _dataType: 8
  _typeName: UnityEngine.GameObject
  _indirectDataType: 0
  _indirectTypeName: 
  _defaultStringValue: 
  _defaultIntValue: 0
  _defaultFloatValue: 0
  _defaultBoolValue: 0
  _defaultVector2Value: {x: 0, y: 0}
  _defaultVector3Value: {x: 0, y: 0, z: 0}
  _defaultVector4Value: {x: 0, y: 0, z: 0, w: 0}
  _defaultRectValue:
    serializedVersion: 2
    x: 0
    y: 0
    width: 0
    height: 0
  _defaultColorValue: {r: 0, g: 0, b: 0, a: 0}
  _defaultEnumIntValue: 0
  _defaultBoundsValue:
    m_Center: {x: 0, y: 0, z: 0}
    m_Extent: {x: 0, y: 0, z: 0}
  _defaultQuaternionValue: {x: 0, y: 0, z: 0, w: 0}
  _stringValue: 
  _intValue: 0
  _floatValue: 0
  _boolValue: 1
  _vector2Value: {x: 0, y: 0}
  _vector3Value: {x: 0, y: 0, z: 0}
  _rectValue:
    serializedVersion: 2
    x: 0
    y: 0
    width: 0
    height: 0
  _colorValue: {r: 0, g: 0, b: 0, a: 1}
  _objectValue: {fileID: 0}
  _enumIntValue: 0
  _enumCached: 0
  _boundsValue:
    m_Center: {x: 0, y: 0, z: 0}
    m_Extent: {x: 0, y: 0, z: 0}
  _quaternionValue: {x: 0, y: 0, z: 0, w: 1}
  _vector4Value: {x: 0, y: 0, z: 0, w: 0}
  _animationCurveValue:
    serializedVersion: 2
    m_Curve: []
    m_PreInfinity: 2
    m_PostInfinity: 2
    m_RotationOrder: 4
  _readOnly: 1
  _private: 1
  _persistent: 0
  _indirect: 0
  _isVariant: 0
  _showDescription: 1
  _description: The GameObject that collided with <Source>.
  _changeListeners: []
  _hidden: 0
  _display: 1
  _label: Parameter
--- !u!114 &8187336201356291375
MonoBehaviour:
  m_ObjectHideFlags: 3
  m_CorrespondingSourceObject: {fileID: 0}
  m_PrefabInstance: {fileID: 0}
  m_PrefabAsset: {fileID: 0}
  m_GameObject: {fileID: 8187336201356291388}
  m_Enabled: 0
  m_EditorHideFlags: 0
  m_Script: {fileID: 280294710, guid: 20990ec6b45e544b0b5f28b1e0c1c96b, type: 3}
  m_Name: 
  m_EditorClassIdentifier: 
  _initialized: 1
  _reset: 0
  _version: 1.2.5
  _moved: 0
  _foldout: 0
  _drawSeparator: 0
  enabledInEditor: 1
  container: {fileID: 8187336201356291368}
  editor: {fileID: 0}
  _id: Contact Point
  _dataType: 5
  _typeName: 
  _indirectDataType: 0
  _indirectTypeName: 
  _defaultStringValue: 
  _defaultIntValue: 0
  _defaultFloatValue: 0
  _defaultBoolValue: 0
  _defaultVector2Value: {x: 0, y: 0}
  _defaultVector3Value: {x: 0, y: 0, z: 0}
  _defaultVector4Value: {x: 0, y: 0, z: 0, w: 0}
  _defaultRectValue:
    serializedVersion: 2
    x: 0
    y: 0
    width: 0
    height: 0
  _defaultColorValue: {r: 0, g: 0, b: 0, a: 0}
  _defaultEnumIntValue: 0
  _defaultBoundsValue:
    m_Center: {x: 0, y: 0, z: 0}
    m_Extent: {x: 0, y: 0, z: 0}
  _defaultQuaternionValue: {x: 0, y: 0, z: 0, w: 0}
  _stringValue: 
  _intValue: 0
  _floatValue: 0
  _boolValue: 1
  _vector2Value: {x: 0, y: 0}
  _vector3Value: {x: 0, y: 0, z: 0}
  _rectValue:
    serializedVersion: 2
    x: 0
    y: 0
    width: 0
    height: 0
  _colorValue: {r: 0, g: 0, b: 0, a: 1}
  _objectValue: {fileID: 0}
  _enumIntValue: 0
  _enumCached: 0
  _boundsValue:
    m_Center: {x: 0, y: 0, z: 0}
    m_Extent: {x: 0, y: 0, z: 0}
  _quaternionValue: {x: 0, y: 0, z: 0, w: 1}
  _vector4Value: {x: 0, y: 0, z: 0, w: 0}
  _animationCurveValue:
    serializedVersion: 2
    m_Curve: []
    m_PreInfinity: 2
    m_PostInfinity: 2
    m_RotationOrder: 4
  _readOnly: 1
  _private: 1
  _persistent: 0
  _indirect: 0
  _isVariant: 0
  _showDescription: 1
  _description: The 3D world coordinates of the collision contact point.
  _changeListeners: []
  _hidden: 0
  _display: 1
  _label: Parameter
--- !u!114 &8187336201356291372
MonoBehaviour:
  m_ObjectHideFlags: 3
  m_CorrespondingSourceObject: {fileID: 0}
  m_PrefabInstance: {fileID: 0}
  m_PrefabAsset: {fileID: 0}
  m_GameObject: {fileID: 8187336201356291388}
  m_Enabled: 0
  m_EditorHideFlags: 0
  m_Script: {fileID: 280294710, guid: 20990ec6b45e544b0b5f28b1e0c1c96b, type: 3}
  m_Name: 
  m_EditorClassIdentifier: 
  _initialized: 1
  _reset: 0
  _version: 1.2.5
  _moved: 0
  _foldout: 0
  _drawSeparator: 0
  enabledInEditor: 1
  container: {fileID: 8187336201356291368}
  editor: {fileID: 0}
  _id: Relative Velocity
  _dataType: 5
  _typeName: 
  _indirectDataType: 0
  _indirectTypeName: 
  _defaultStringValue: 
  _defaultIntValue: 0
  _defaultFloatValue: 0
  _defaultBoolValue: 0
  _defaultVector2Value: {x: 0, y: 0}
  _defaultVector3Value: {x: 0, y: 0, z: 0}
  _defaultVector4Value: {x: 0, y: 0, z: 0, w: 0}
  _defaultRectValue:
    serializedVersion: 2
    x: 0
    y: 0
    width: 0
    height: 0
  _defaultColorValue: {r: 0, g: 0, b: 0, a: 0}
  _defaultEnumIntValue: 0
  _defaultBoundsValue:
    m_Center: {x: 0, y: 0, z: 0}
    m_Extent: {x: 0, y: 0, z: 0}
  _defaultQuaternionValue: {x: 0, y: 0, z: 0, w: 0}
  _stringValue: 
  _intValue: 0
  _floatValue: 0
  _boolValue: 1
  _vector2Value: {x: 0, y: 0}
  _vector3Value: {x: 0, y: 0, z: 0}
  _rectValue:
    serializedVersion: 2
    x: 0
    y: 0
    width: 0
    height: 0
  _colorValue: {r: 0, g: 0, b: 0, a: 1}
  _objectValue: {fileID: 0}
  _enumIntValue: 0
  _enumCached: 0
  _boundsValue:
    m_Center: {x: 0, y: 0, z: 0}
    m_Extent: {x: 0, y: 0, z: 0}
  _quaternionValue: {x: 0, y: 0, z: 0, w: 1}
  _vector4Value: {x: 0, y: 0, z: 0, w: 0}
  _animationCurveValue:
    serializedVersion: 2
    m_Curve: []
    m_PreInfinity: 2
    m_PostInfinity: 2
    m_RotationOrder: 4
  _readOnly: 1
  _private: 1
  _persistent: 0
  _indirect: 0
  _isVariant: 0
  _showDescription: 1
  _description: The relative linear velocity of the two colliding objects.
  _changeListeners: []
  _hidden: 0
  _display: 1
  _label: Parameter
--- !u!114 &8187336201356291373
MonoBehaviour:
  m_ObjectHideFlags: 3
  m_CorrespondingSourceObject: {fileID: 0}
  m_PrefabInstance: {fileID: 0}
  m_PrefabAsset: {fileID: 0}
  m_GameObject: {fileID: 8187336201356291388}
  m_Enabled: 0
  m_EditorHideFlags: 0
  m_Script: {fileID: -1358400679, guid: 20990ec6b45e544b0b5f28b1e0c1c96b, type: 3}
  m_Name: 
  m_EditorClassIdentifier: 
  _initialized: 1
  _reset: 0
  _version: 1.2.5
  _moved: 0
  _foldout: 1
  _drawSeparator: 0
  enabledInEditor: 1
  container: {fileID: 8187336201356291365}
  editor: {fileID: 0}
  _caption: 
  _connective: 0
  _ray: {fileID: 8187336201225217111}
  _rayVar: {fileID: 0}
  _comparison: 2
  _collider: {fileID: 0}
  _collider2d: {fileID: 0}
  _colliderVar: {fileID: 0}
  _layers:
    serializedVersion: 2
    m_Bits: 65531
--- !u!114 &8187336201356291378
MonoBehaviour:
  m_ObjectHideFlags: 3
  m_CorrespondingSourceObject: {fileID: 0}
  m_PrefabInstance: {fileID: 0}
  m_PrefabAsset: {fileID: 0}
  m_GameObject: {fileID: 8187336201356291388}
  m_Enabled: 0
  m_EditorHideFlags: 0
  m_Script: {fileID: 999285341, guid: 20990ec6b45e544b0b5f28b1e0c1c96b, type: 3}
  m_Name: 
  m_EditorClassIdentifier: 
  _initialized: 1
  _reset: 0
  _version: 1.2.5
  _moved: 0
  _foldout: 1
  _drawSeparator: 0
  enabledInEditor: 1
  container: {fileID: 8187336201356291385}
  editor: {fileID: 0}
  _caption: If
  _breakpoint: 0
  _conditions:
  - {fileID: 8187336201356291379}
  - {fileID: 8187336201356291376}
  _actions:
  - {fileID: 8187336201356291377}
  _elseActions: []
  _elseVisible: 0
--- !u!114 &8187336201356291379
MonoBehaviour:
  m_ObjectHideFlags: 3
  m_CorrespondingSourceObject: {fileID: 0}
  m_PrefabInstance: {fileID: 0}
  m_PrefabAsset: {fileID: 0}
  m_GameObject: {fileID: 8187336201356291388}
  m_Enabled: 0
  m_EditorHideFlags: 0
  m_Script: {fileID: 1810492686, guid: 20990ec6b45e544b0b5f28b1e0c1c96b, type: 3}
  m_Name: 
  m_EditorClassIdentifier: 
  _initialized: 1
  _reset: 0
  _version: 1.2.5
  _moved: 0
  _foldout: 1
  _drawSeparator: 0
  enabledInEditor: 1
  container: {fileID: 8187336201356291378}
  editor: {fileID: 0}
  _caption: 
  _connective: 0
  _inputType: 0
  _key: {fileID: 8187336202284258694}
  _keyVar: {fileID: 0}
  _keyCode: 101
  _keyCodeVar: {fileID: 0}
  _comparison: 0
--- !u!114 &8187336201356291376
MonoBehaviour:
  m_ObjectHideFlags: 3
  m_CorrespondingSourceObject: {fileID: 0}
  m_PrefabInstance: {fileID: 0}
  m_PrefabAsset: {fileID: 0}
  m_GameObject: {fileID: 8187336201356291388}
  m_Enabled: 0
  m_EditorHideFlags: 0
  m_Script: {fileID: -1358400679, guid: 20990ec6b45e544b0b5f28b1e0c1c96b, type: 3}
  m_Name: 
  m_EditorClassIdentifier: 
  _initialized: 1
  _reset: 0
  _version: 1.2.5
  _moved: 0
  _foldout: 1
  _drawSeparator: 0
  enabledInEditor: 1
  container: {fileID: 8187336201356291378}
  editor: {fileID: 0}
  _caption: 
  _connective: 0
  _ray: {fileID: 8187336201225217111}
  _rayVar: {fileID: 0}
  _comparison: 2
  _collider: {fileID: 0}
  _collider2d: {fileID: 0}
  _colliderVar: {fileID: 0}
  _layers:
    serializedVersion: 2
    m_Bits: 65531
--- !u!114 &8187336201356291377
MonoBehaviour:
  m_ObjectHideFlags: 3
  m_CorrespondingSourceObject: {fileID: 0}
  m_PrefabInstance: {fileID: 0}
  m_PrefabAsset: {fileID: 0}
  m_GameObject: {fileID: 8187336201356291388}
  m_Enabled: 0
  m_EditorHideFlags: 0
  m_Script: {fileID: 145151700, guid: 20990ec6b45e544b0b5f28b1e0c1c96b, type: 3}
  m_Name: 
  m_EditorClassIdentifier: 
  _initialized: 1
  _reset: 0
  _version: 1.2.5
  _moved: 0
  _foldout: 1
  _drawSeparator: 0
  enabledInEditor: 1
  container: {fileID: 8187336201356291378}
  editor: {fileID: 0}
  _caption: Set Position
  _breakpoint: 0
  _target: {fileID: 0}
  _targetVar: {fileID: 0}
  _space: 0
  _spaceVar: {fileID: 0}
  _mask: {x: 1, y: 1, z: 1}
  _maskVar: {fileID: 0}
  _relative: 0
  _relativeVar: {fileID: 0}
  _multiplier: 100
  _multiplierVar: {fileID: 0}
  _position: {x: 0, y: 0, z: 0}
  _positionVar: {fileID: 0}
--- !u!114 &8187336201356291380
MonoBehaviour:
  m_ObjectHideFlags: 3
  m_CorrespondingSourceObject: {fileID: 0}
  m_PrefabInstance: {fileID: 0}
  m_PrefabAsset: {fileID: 0}
  m_GameObject: {fileID: 8187336201356291388}
  m_Enabled: 0
  m_EditorHideFlags: 0
  m_Script: {fileID: 392807261, guid: 20990ec6b45e544b0b5f28b1e0c1c96b, type: 3}
  m_Name: 
  m_EditorClassIdentifier: 
  _initialized: 1
  _reset: 0
  _version: 1.2.5
  _moved: 0
  _foldout: 1
  _drawSeparator: 0
  enabledInEditor: 1
  container: {fileID: 8187336201356291364}
  editor: {fileID: 0}
  _id: On Collision Enter
  _actions:
  - {fileID: 8187336201356291385}
  - {fileID: 6716727134602813076}
  _parameters:
  - {fileID: 8187336201356291381}
  - {fileID: 8187336201356291386}
  - {fileID: 8187336201356291387}
  - {fileID: 8187336201356291384}
  _showParameters: 0
  _showSettings: 1
  _actionsFoldout: 1
  _ignorePause: 0
  _listeningRange: 0
  _listeningTarget: {fileID: 8187336201814160695}
  _listeningList: {fileID: 0}
--- !u!114 &8187336201356291381
MonoBehaviour:
  m_ObjectHideFlags: 3
  m_CorrespondingSourceObject: {fileID: 0}
  m_PrefabInstance: {fileID: 0}
  m_PrefabAsset: {fileID: 0}
  m_GameObject: {fileID: 8187336201356291388}
  m_Enabled: 0
  m_EditorHideFlags: 0
  m_Script: {fileID: 280294710, guid: 20990ec6b45e544b0b5f28b1e0c1c96b, type: 3}
  m_Name: 
  m_EditorClassIdentifier: 
  _initialized: 1
  _reset: 0
  _version: 1.2.5
  _moved: 0
  _foldout: 0
  _drawSeparator: 0
  enabledInEditor: 1
  container: {fileID: 8187336201356291380}
  editor: {fileID: 0}
  _id: Source
  _dataType: 8
  _typeName: UnityEngine.GameObject
  _indirectDataType: 0
  _indirectTypeName: 
  _defaultStringValue: 
  _defaultIntValue: 0
  _defaultFloatValue: 0
  _defaultBoolValue: 0
  _defaultVector2Value: {x: 0, y: 0}
  _defaultVector3Value: {x: 0, y: 0, z: 0}
  _defaultVector4Value: {x: 0, y: 0, z: 0, w: 0}
  _defaultRectValue:
    serializedVersion: 2
    x: 0
    y: 0
    width: 0
    height: 0
  _defaultColorValue: {r: 0, g: 0, b: 0, a: 0}
  _defaultEnumIntValue: 0
  _defaultBoundsValue:
    m_Center: {x: 0, y: 0, z: 0}
    m_Extent: {x: 0, y: 0, z: 0}
  _defaultQuaternionValue: {x: 0, y: 0, z: 0, w: 0}
  _stringValue: 
  _intValue: 0
  _floatValue: 0
  _boolValue: 1
  _vector2Value: {x: 0, y: 0}
  _vector3Value: {x: 0, y: 0, z: 0}
  _rectValue:
    serializedVersion: 2
    x: 0
    y: 0
    width: 0
    height: 0
  _colorValue: {r: 0, g: 0, b: 0, a: 1}
  _objectValue: {fileID: 0}
  _enumIntValue: 0
  _enumCached: 0
  _boundsValue:
    m_Center: {x: 0, y: 0, z: 0}
    m_Extent: {x: 0, y: 0, z: 0}
  _quaternionValue: {x: 0, y: 0, z: 0, w: 1}
  _vector4Value: {x: 0, y: 0, z: 0, w: 0}
  _animationCurveValue:
    serializedVersion: 2
    m_Curve: []
    m_PreInfinity: 2
    m_PostInfinity: 2
    m_RotationOrder: 4
  _readOnly: 1
  _private: 1
  _persistent: 0
  _indirect: 0
  _isVariant: 0
  _showDescription: 1
  _description: The GameObject which was collided and originated the event.
  _changeListeners: []
  _hidden: 0
  _display: 1
  _label: Parameter
--- !u!114 &8187336201356291386
MonoBehaviour:
  m_ObjectHideFlags: 3
  m_CorrespondingSourceObject: {fileID: 0}
  m_PrefabInstance: {fileID: 0}
  m_PrefabAsset: {fileID: 0}
  m_GameObject: {fileID: 8187336201356291388}
  m_Enabled: 0
  m_EditorHideFlags: 0
  m_Script: {fileID: 280294710, guid: 20990ec6b45e544b0b5f28b1e0c1c96b, type: 3}
  m_Name: 
  m_EditorClassIdentifier: 
  _initialized: 1
  _reset: 0
  _version: 1.2.5
  _moved: 0
  _foldout: 0
  _drawSeparator: 0
  enabledInEditor: 1
  container: {fileID: 8187336201356291380}
  editor: {fileID: 0}
  _id: Other
  _dataType: 8
  _typeName: UnityEngine.GameObject
  _indirectDataType: 0
  _indirectTypeName: 
  _defaultStringValue: 
  _defaultIntValue: 0
  _defaultFloatValue: 0
  _defaultBoolValue: 0
  _defaultVector2Value: {x: 0, y: 0}
  _defaultVector3Value: {x: 0, y: 0, z: 0}
  _defaultVector4Value: {x: 0, y: 0, z: 0, w: 0}
  _defaultRectValue:
    serializedVersion: 2
    x: 0
    y: 0
    width: 0
    height: 0
  _defaultColorValue: {r: 0, g: 0, b: 0, a: 0}
  _defaultEnumIntValue: 0
  _defaultBoundsValue:
    m_Center: {x: 0, y: 0, z: 0}
    m_Extent: {x: 0, y: 0, z: 0}
  _defaultQuaternionValue: {x: 0, y: 0, z: 0, w: 0}
  _stringValue: 
  _intValue: 0
  _floatValue: 0
  _boolValue: 1
  _vector2Value: {x: 0, y: 0}
  _vector3Value: {x: 0, y: 0, z: 0}
  _rectValue:
    serializedVersion: 2
    x: 0
    y: 0
    width: 0
    height: 0
  _colorValue: {r: 0, g: 0, b: 0, a: 1}
  _objectValue: {fileID: 0}
  _enumIntValue: 0
  _enumCached: 0
  _boundsValue:
    m_Center: {x: 0, y: 0, z: 0}
    m_Extent: {x: 0, y: 0, z: 0}
  _quaternionValue: {x: 0, y: 0, z: 0, w: 1}
  _vector4Value: {x: 0, y: 0, z: 0, w: 0}
  _animationCurveValue:
    serializedVersion: 2
    m_Curve: []
    m_PreInfinity: 2
    m_PostInfinity: 2
    m_RotationOrder: 4
  _readOnly: 1
  _private: 1
  _persistent: 0
  _indirect: 0
  _isVariant: 0
  _showDescription: 1
  _description: The GameObject that collided with <Source>.
  _changeListeners: []
  _hidden: 0
  _display: 1
  _label: Parameter
--- !u!114 &8187336201356291387
MonoBehaviour:
  m_ObjectHideFlags: 3
  m_CorrespondingSourceObject: {fileID: 0}
  m_PrefabInstance: {fileID: 0}
  m_PrefabAsset: {fileID: 0}
  m_GameObject: {fileID: 8187336201356291388}
  m_Enabled: 0
  m_EditorHideFlags: 0
  m_Script: {fileID: 280294710, guid: 20990ec6b45e544b0b5f28b1e0c1c96b, type: 3}
  m_Name: 
  m_EditorClassIdentifier: 
  _initialized: 1
  _reset: 0
  _version: 1.2.5
  _moved: 0
  _foldout: 0
  _drawSeparator: 0
  enabledInEditor: 1
  container: {fileID: 8187336201356291380}
  editor: {fileID: 0}
  _id: Contact Point
  _dataType: 5
  _typeName: 
  _indirectDataType: 0
  _indirectTypeName: 
  _defaultStringValue: 
  _defaultIntValue: 0
  _defaultFloatValue: 0
  _defaultBoolValue: 0
  _defaultVector2Value: {x: 0, y: 0}
  _defaultVector3Value: {x: 0, y: 0, z: 0}
  _defaultVector4Value: {x: 0, y: 0, z: 0, w: 0}
  _defaultRectValue:
    serializedVersion: 2
    x: 0
    y: 0
    width: 0
    height: 0
  _defaultColorValue: {r: 0, g: 0, b: 0, a: 0}
  _defaultEnumIntValue: 0
  _defaultBoundsValue:
    m_Center: {x: 0, y: 0, z: 0}
    m_Extent: {x: 0, y: 0, z: 0}
  _defaultQuaternionValue: {x: 0, y: 0, z: 0, w: 0}
  _stringValue: 
  _intValue: 0
  _floatValue: 0
  _boolValue: 1
  _vector2Value: {x: 0, y: 0}
  _vector3Value: {x: 0, y: 0, z: 0}
  _rectValue:
    serializedVersion: 2
    x: 0
    y: 0
    width: 0
    height: 0
  _colorValue: {r: 0, g: 0, b: 0, a: 1}
  _objectValue: {fileID: 0}
  _enumIntValue: 0
  _enumCached: 0
  _boundsValue:
    m_Center: {x: 0, y: 0, z: 0}
    m_Extent: {x: 0, y: 0, z: 0}
  _quaternionValue: {x: 0, y: 0, z: 0, w: 1}
  _vector4Value: {x: 0, y: 0, z: 0, w: 0}
  _animationCurveValue:
    serializedVersion: 2
    m_Curve: []
    m_PreInfinity: 2
    m_PostInfinity: 2
    m_RotationOrder: 4
  _readOnly: 1
  _private: 1
  _persistent: 0
  _indirect: 0
  _isVariant: 0
  _showDescription: 1
  _description: The 3D world coordinates of the collision contact point.
  _changeListeners: []
  _hidden: 0
  _display: 1
  _label: Parameter
--- !u!114 &8187336201356291384
MonoBehaviour:
  m_ObjectHideFlags: 3
  m_CorrespondingSourceObject: {fileID: 0}
  m_PrefabInstance: {fileID: 0}
  m_PrefabAsset: {fileID: 0}
  m_GameObject: {fileID: 8187336201356291388}
  m_Enabled: 0
  m_EditorHideFlags: 0
  m_Script: {fileID: 280294710, guid: 20990ec6b45e544b0b5f28b1e0c1c96b, type: 3}
  m_Name: 
  m_EditorClassIdentifier: 
  _initialized: 1
  _reset: 0
  _version: 1.2.5
  _moved: 0
  _foldout: 0
  _drawSeparator: 0
  enabledInEditor: 1
  container: {fileID: 8187336201356291380}
  editor: {fileID: 0}
  _id: Relative Velocity
  _dataType: 5
  _typeName: 
  _indirectDataType: 0
  _indirectTypeName: 
  _defaultStringValue: 
  _defaultIntValue: 0
  _defaultFloatValue: 0
  _defaultBoolValue: 0
  _defaultVector2Value: {x: 0, y: 0}
  _defaultVector3Value: {x: 0, y: 0, z: 0}
  _defaultVector4Value: {x: 0, y: 0, z: 0, w: 0}
  _defaultRectValue:
    serializedVersion: 2
    x: 0
    y: 0
    width: 0
    height: 0
  _defaultColorValue: {r: 0, g: 0, b: 0, a: 0}
  _defaultEnumIntValue: 0
  _defaultBoundsValue:
    m_Center: {x: 0, y: 0, z: 0}
    m_Extent: {x: 0, y: 0, z: 0}
  _defaultQuaternionValue: {x: 0, y: 0, z: 0, w: 0}
  _stringValue: 
  _intValue: 0
  _floatValue: 0
  _boolValue: 1
  _vector2Value: {x: 0, y: 0}
  _vector3Value: {x: 0, y: 0, z: 0}
  _rectValue:
    serializedVersion: 2
    x: 0
    y: 0
    width: 0
    height: 0
  _colorValue: {r: 0, g: 0, b: 0, a: 1}
  _objectValue: {fileID: 0}
  _enumIntValue: 0
  _enumCached: 0
  _boundsValue:
    m_Center: {x: 0, y: 0, z: 0}
    m_Extent: {x: 0, y: 0, z: 0}
  _quaternionValue: {x: 0, y: 0, z: 0, w: 1}
  _vector4Value: {x: 0, y: 0, z: 0, w: 0}
  _animationCurveValue:
    serializedVersion: 2
    m_Curve: []
    m_PreInfinity: 2
    m_PostInfinity: 2
    m_RotationOrder: 4
  _readOnly: 1
  _private: 1
  _persistent: 0
  _indirect: 0
  _isVariant: 0
  _showDescription: 1
  _description: The relative linear velocity of the two colliding objects.
  _changeListeners: []
  _hidden: 0
  _display: 1
  _label: Parameter
--- !u!114 &8187336201356291385
MonoBehaviour:
  m_ObjectHideFlags: 3
  m_CorrespondingSourceObject: {fileID: 0}
  m_PrefabInstance: {fileID: 0}
  m_PrefabAsset: {fileID: 0}
  m_GameObject: {fileID: 8187336201356291388}
  m_Enabled: 0
  m_EditorHideFlags: 0
  m_Script: {fileID: -686213845, guid: 20990ec6b45e544b0b5f28b1e0c1c96b, type: 3}
  m_Name: 
  m_EditorClassIdentifier: 
  _initialized: 1
  _reset: 0
  _version: 1.2.5
  _moved: 0
  _foldout: 1
  _drawSeparator: 0
  enabledInEditor: 1
  container: {fileID: 8187336201356291380}
  editor: {fileID: 0}
  _caption: Loop
  _breakpoint: 0
  _actions:
  - {fileID: 8187336201356291378}
--- !u!114 &8187336201356291390
MonoBehaviour:
  m_ObjectHideFlags: 3
  m_CorrespondingSourceObject: {fileID: 0}
  m_PrefabInstance: {fileID: 0}
  m_PrefabAsset: {fileID: 0}
  m_GameObject: {fileID: 8187336201356291388}
  m_Enabled: 0
  m_EditorHideFlags: 0
  m_Script: {fileID: -686213845, guid: 20990ec6b45e544b0b5f28b1e0c1c96b, type: 3}
  m_Name: 
  m_EditorClassIdentifier: 
  _initialized: 1
  _reset: 0
  _version: 1.2.5
  _moved: 0
  _foldout: 1
  _drawSeparator: 0
  enabledInEditor: 1
  container: {fileID: 8187336201356291368}
  editor: {fileID: 0}
  _caption: Loop
  _breakpoint: 0
  _actions:
  - {fileID: 8187336201356291365}
--- !u!114 &6716727134602813076
MonoBehaviour:
  m_ObjectHideFlags: 3
  m_CorrespondingSourceObject: {fileID: 0}
  m_PrefabInstance: {fileID: 0}
  m_PrefabAsset: {fileID: 0}
  m_GameObject: {fileID: 8187336201356291388}
  m_Enabled: 0
  m_EditorHideFlags: 0
  m_Script: {fileID: 1506871400, guid: 20990ec6b45e544b0b5f28b1e0c1c96b, type: 3}
  m_Name: 
  m_EditorClassIdentifier: 
  _initialized: 1
  _reset: 0
  _version: 1.2.5
  _moved: 0
  _foldout: 1
  _drawSeparator: 0
  enabledInEditor: 1
  container: {fileID: 8187336201356291380}
  editor: {fileID: 0}
  _caption: While
  _breakpoint: 0
  _conditions:
  - {fileID: 946867200820472650}
  _actions:
  - {fileID: 1778952903500386028}
--- !u!114 &946867200820472650
MonoBehaviour:
  m_ObjectHideFlags: 3
  m_CorrespondingSourceObject: {fileID: 0}
  m_PrefabInstance: {fileID: 0}
  m_PrefabAsset: {fileID: 0}
  m_GameObject: {fileID: 8187336201356291388}
  m_Enabled: 0
  m_EditorHideFlags: 0
  m_Script: {fileID: 1810492686, guid: 20990ec6b45e544b0b5f28b1e0c1c96b, type: 3}
  m_Name: 
  m_EditorClassIdentifier: 
  _initialized: 1
  _reset: 0
  _version: 1.2.5
  _moved: 0
  _foldout: 1
  _drawSeparator: 0
  enabledInEditor: 1
  container: {fileID: 6716727134602813076}
  editor: {fileID: 0}
  _caption: 
  _connective: 0
  _inputType: 1
  _key: {fileID: 0}
  _keyVar: {fileID: 0}
  _keyCode: 259
  _keyCodeVar: {fileID: 0}
  _comparison: 0
--- !u!114 &1778952903500386028
MonoBehaviour:
  m_ObjectHideFlags: 3
  m_CorrespondingSourceObject: {fileID: 0}
  m_PrefabInstance: {fileID: 0}
  m_PrefabAsset: {fileID: 0}
  m_GameObject: {fileID: 8187336201356291388}
  m_Enabled: 0
  m_EditorHideFlags: 0
  m_Script: {fileID: 1179863927, guid: 20990ec6b45e544b0b5f28b1e0c1c96b, type: 3}
  m_Name: 
  m_EditorClassIdentifier: 
  _initialized: 1
  _reset: 0
  _version: 1.2.5
  _moved: 0
  _foldout: 1
  _drawSeparator: 0
  enabledInEditor: 1
  container: {fileID: 6716727134602813076}
  editor: {fileID: 0}
  _caption: Set Camera Property
  _breakpoint: 0
  _target: {fileID: 0}
  _targetVar: {fileID: 0}
  _property: 9
  _floatValue: 100
  _boolValue: 0
  _colorValue: {r: 0, g: 0, b: 0, a: 1}
  _clearFlagsValue: 0
  _rectValue:
    serializedVersion: 2
    x: 0
    y: 0
    width: 0
    height: 0
  _layersValue:
    serializedVersion: 2
    m_Bits: 0
  _depthTextureModeValue: 0
  _renderingPathValue: 0
  _renderTextureValue: {fileID: 0}
  _transparencySortModeValue: 0
  _valueVar: {fileID: 0}
--- !u!1 &8187336201483104470
GameObject:
  m_ObjectHideFlags: 0
  m_CorrespondingSourceObject: {fileID: 0}
  m_PrefabInstance: {fileID: 0}
  m_PrefabAsset: {fileID: 0}
  serializedVersion: 6
  m_Component:
  - component: {fileID: 8187336201483104465}
  - component: {fileID: 8187336201483104434}
  - component: {fileID: 8187336201483104435}
  - component: {fileID: 8187336201483104432}
  - component: {fileID: 8187336201483104433}
  - component: {fileID: 8187336201483104438}
  - component: {fileID: 8187336201483104439}
  - component: {fileID: 8187336201483104436}
  - component: {fileID: 8187336201483104437}
  - component: {fileID: 8187336201483104442}
  - component: {fileID: 8187336201483104443}
  - component: {fileID: 8187336201483104440}
  - component: {fileID: 8187336201483104441}
  - component: {fileID: 8187336201483104446}
  - component: {fileID: 8187336201483104447}
  - component: {fileID: 8187336201483104444}
  - component: {fileID: 8187336201483104445}
  - component: {fileID: 8187336201483104450}
  - component: {fileID: 8187336201483104451}
  - component: {fileID: 8187336201483104448}
  - component: {fileID: 8187336201483104449}
  - component: {fileID: 8187336201483104454}
  - component: {fileID: 8187336201483104455}
  - component: {fileID: 8187336201483104452}
  - component: {fileID: 8187336201483104453}
  - component: {fileID: 8187336201483104458}
  - component: {fileID: 8187336201483104459}
  - component: {fileID: 8187336201483104456}
  - component: {fileID: 8187336201483104457}
  - component: {fileID: 8187336201483104462}
  - component: {fileID: 8187336201483104463}
  - component: {fileID: 8187336201483104460}
  - component: {fileID: 8187336201483104461}
  - component: {fileID: 8187336201483104466}
  - component: {fileID: 8187336201483104467}
  - component: {fileID: 8187336201483104464}
  m_Layer: 0
  m_Name: Controles
  m_TagString: Untagged
  m_Icon: {fileID: 0}
  m_NavMeshLayer: 0
  m_StaticEditorFlags: 0
  m_IsActive: 1
--- !u!4 &8187336201483104465
Transform:
  m_ObjectHideFlags: 0
  m_CorrespondingSourceObject: {fileID: 0}
  m_PrefabInstance: {fileID: 0}
  m_PrefabAsset: {fileID: 0}
  m_GameObject: {fileID: 8187336201483104470}
  m_LocalRotation: {x: 0, y: 0, z: 0, w: 1}
  m_LocalPosition: {x: 0, y: 0, z: 0}
  m_LocalScale: {x: 1, y: 1, z: 1}
  m_Children:
  - {fileID: 8187336202284258695}
  - {fileID: 8187336201225217104}
  - {fileID: 8187336201356291391}
  m_Father: {fileID: 8187336201814160690}
  m_RootOrder: 1
  m_LocalEulerAnglesHint: {x: 0, y: 0, z: 0}
--- !u!114 &8187336201483104434
MonoBehaviour:
  m_ObjectHideFlags: 0
  m_CorrespondingSourceObject: {fileID: 0}
  m_PrefabInstance: {fileID: 0}
  m_PrefabAsset: {fileID: 0}
  m_GameObject: {fileID: 8187336201483104470}
  m_Enabled: 1
  m_EditorHideFlags: 0
  m_Script: {fileID: 1528663654, guid: 20990ec6b45e544b0b5f28b1e0c1c96b, type: 3}
  m_Name: 
  m_EditorClassIdentifier: 
  _initialized: 1
  _reset: 0
  _version: 1.2.5
  _moved: 0
  _blocks:
  - {fileID: 8187336201483104435}
  - {fileID: 8187336201483104439}
  - {fileID: 8187336201483104436}
  - {fileID: 8187336201483104440}
  - {fileID: 8187336201483104458}
  editor: {fileID: 0}
  _showSettings: 0
  _displayMode: 0
  _windowTitle: GameFlow
  _windowMinSize: {x: 240, y: 64}
  _windowMaxSize: {x: 600, y: 400}
--- !u!114 &8187336201483104435
MonoBehaviour:
  m_ObjectHideFlags: 3
  m_CorrespondingSourceObject: {fileID: 0}
  m_PrefabInstance: {fileID: 0}
  m_PrefabAsset: {fileID: 0}
  m_GameObject: {fileID: 8187336201483104470}
  m_Enabled: 0
  m_EditorHideFlags: 0
  m_Script: {fileID: 131294560, guid: 20990ec6b45e544b0b5f28b1e0c1c96b, type: 3}
  m_Name: 
  m_EditorClassIdentifier: 
  _initialized: 1
  _reset: 0
  _version: 1.2.5
  _moved: 0
  _foldout: 0
  _drawSeparator: 0
  enabledInEditor: 1
  container: {fileID: 8187336201483104434}
  editor: {fileID: 0}
  _id: On Start
  _actions:
  - {fileID: 8187336201483104432}
  _parameters: []
  _showParameters: 0
  _showSettings: 1
  _actionsFoldout: 1
  _ignorePause: 0
--- !u!114 &8187336201483104432
MonoBehaviour:
  m_ObjectHideFlags: 3
  m_CorrespondingSourceObject: {fileID: 0}
  m_PrefabInstance: {fileID: 0}
  m_PrefabAsset: {fileID: 0}
  m_GameObject: {fileID: 8187336201483104470}
  m_Enabled: 0
  m_EditorHideFlags: 0
  m_Script: {fileID: -686213845, guid: 20990ec6b45e544b0b5f28b1e0c1c96b, type: 3}
  m_Name: 
  m_EditorClassIdentifier: 
  _initialized: 1
  _reset: 0
  _version: 1.2.5
  _moved: 0
  _foldout: 1
  _drawSeparator: 0
  enabledInEditor: 1
  container: {fileID: 8187336201483104435}
  editor: {fileID: 0}
  _caption: Loop
  _breakpoint: 0
  _actions:
  - {fileID: 8187336201483104433}
  - {fileID: 8187336201483104438}
--- !u!114 &8187336201483104433
MonoBehaviour:
  m_ObjectHideFlags: 3
  m_CorrespondingSourceObject: {fileID: 0}
  m_PrefabInstance: {fileID: 0}
  m_PrefabAsset: {fileID: 0}
  m_GameObject: {fileID: 8187336201483104470}
  m_Enabled: 0
  m_EditorHideFlags: 0
  m_Script: {fileID: 736918478, guid: 20990ec6b45e544b0b5f28b1e0c1c96b, type: 3}
  m_Name: 
  m_EditorClassIdentifier: 
  _initialized: 1
  _reset: 0
  _version: 1.2.5
  _moved: 0
  _foldout: 1
  _drawSeparator: 0
  enabledInEditor: 1
  container: {fileID: 8187336201483104432}
  editor: {fileID: 0}
  _caption: Get Transform Direction
  _breakpoint: 0
  _output: {fileID: 8187336201483104439}
  _target: {fileID: 8187336201814160690}
  _targetVar: {fileID: 0}
  _vector3Value: {x: 0, y: 0, z: 1}
  _valueVar: {fileID: 0}
  _inverse: 0
  _inverseVar: {fileID: 0}
--- !u!114 &8187336201483104438
MonoBehaviour:
  m_ObjectHideFlags: 3
  m_CorrespondingSourceObject: {fileID: 0}
  m_PrefabInstance: {fileID: 0}
  m_PrefabAsset: {fileID: 0}
  m_GameObject: {fileID: 8187336201483104470}
  m_Enabled: 0
  m_EditorHideFlags: 0
  m_Script: {fileID: 736918478, guid: 20990ec6b45e544b0b5f28b1e0c1c96b, type: 3}
  m_Name: 
  m_EditorClassIdentifier: 
  _initialized: 1
  _reset: 0
  _version: 1.2.5
  _moved: 0
  _foldout: 1
  _drawSeparator: 0
  enabledInEditor: 1
  container: {fileID: 8187336201483104432}
  editor: {fileID: 0}
  _caption: Get Transform Direction
  _breakpoint: 0
  _output: {fileID: 8187336201483104436}
  _target: {fileID: 8187336201814160690}
  _targetVar: {fileID: 0}
  _vector3Value: {x: 1, y: 0, z: 0}
  _valueVar: {fileID: 0}
  _inverse: 0
  _inverseVar: {fileID: 0}
--- !u!114 &8187336201483104439
MonoBehaviour:
  m_ObjectHideFlags: 3
  m_CorrespondingSourceObject: {fileID: 0}
  m_PrefabInstance: {fileID: 0}
  m_PrefabAsset: {fileID: 0}
  m_GameObject: {fileID: 8187336201483104470}
  m_Enabled: 0
  m_EditorHideFlags: 0
  m_Script: {fileID: 161578033, guid: 20990ec6b45e544b0b5f28b1e0c1c96b, type: 3}
  m_Name: 
  m_EditorClassIdentifier: 
  _initialized: 1
  _reset: 0
  _version: 1.2.5
  _moved: 0
  _foldout: 0
  _drawSeparator: 0
  enabledInEditor: 1
  container: {fileID: 8187336201483104434}
  editor: {fileID: 0}
  _id: "Direcci\xF3n Z"
  _dataType: 5
  _typeName: 
  _indirectDataType: 0
  _indirectTypeName: 
  _defaultStringValue: 
  _defaultIntValue: 0
  _defaultFloatValue: 0
  _defaultBoolValue: 0
  _defaultVector2Value: {x: 0, y: 0}
  _defaultVector3Value: {x: 0, y: 0, z: 0}
  _defaultVector4Value: {x: 0, y: 0, z: 0, w: 0}
  _defaultRectValue:
    serializedVersion: 2
    x: 0
    y: 0
    width: 0
    height: 0
  _defaultColorValue: {r: 0, g: 0, b: 0, a: 0}
  _defaultEnumIntValue: 0
  _defaultBoundsValue:
    m_Center: {x: 0, y: 0, z: 0}
    m_Extent: {x: 0, y: 0, z: 0}
  _defaultQuaternionValue: {x: 0, y: 0, z: 0, w: 0}
  _stringValue: 
  _intValue: 0
  _floatValue: 0
  _boolValue: 1
  _vector2Value: {x: 0, y: 0}
  _vector3Value: {x: 0, y: 0, z: 0}
  _rectValue:
    serializedVersion: 2
    x: 0
    y: 0
    width: 0
    height: 0
  _colorValue: {r: 0, g: 0, b: 0, a: 1}
  _objectValue: {fileID: 0}
  _enumIntValue: 0
  _enumCached: 0
  _boundsValue:
    m_Center: {x: 0, y: 0, z: 0}
    m_Extent: {x: 0, y: 0, z: 0}
  _quaternionValue: {x: 0, y: 0, z: 0, w: 1}
  _vector4Value: {x: 0, y: 0, z: 0, w: 0}
  _animationCurveValue:
    serializedVersion: 2
    m_Curve: []
    m_PreInfinity: 2
    m_PostInfinity: 2
    m_RotationOrder: 4
  _readOnly: 0
  _private: 0
  _persistent: 0
  _indirect: 0
  _isVariant: 0
  _showDescription: 0
  _description: <Description>
  _changeListeners: []
--- !u!114 &8187336201483104436
MonoBehaviour:
  m_ObjectHideFlags: 3
  m_CorrespondingSourceObject: {fileID: 0}
  m_PrefabInstance: {fileID: 0}
  m_PrefabAsset: {fileID: 0}
  m_GameObject: {fileID: 8187336201483104470}
  m_Enabled: 0
  m_EditorHideFlags: 0
  m_Script: {fileID: 161578033, guid: 20990ec6b45e544b0b5f28b1e0c1c96b, type: 3}
  m_Name: 
  m_EditorClassIdentifier: 
  _initialized: 1
  _reset: 0
  _version: 1.2.5
  _moved: 0
  _foldout: 0
  _drawSeparator: 0
  enabledInEditor: 1
  container: {fileID: 8187336201483104434}
  editor: {fileID: 0}
  _id: "Direcci\xF3n X"
  _dataType: 5
  _typeName: 
  _indirectDataType: 0
  _indirectTypeName: 
  _defaultStringValue: 
  _defaultIntValue: 0
  _defaultFloatValue: 0
  _defaultBoolValue: 0
  _defaultVector2Value: {x: 0, y: 0}
  _defaultVector3Value: {x: 0, y: 0, z: 0}
  _defaultVector4Value: {x: 0, y: 0, z: 0, w: 0}
  _defaultRectValue:
    serializedVersion: 2
    x: 0
    y: 0
    width: 0
    height: 0
  _defaultColorValue: {r: 0, g: 0, b: 0, a: 0}
  _defaultEnumIntValue: 0
  _defaultBoundsValue:
    m_Center: {x: 0, y: 0, z: 0}
    m_Extent: {x: 0, y: 0, z: 0}
  _defaultQuaternionValue: {x: 0, y: 0, z: 0, w: 0}
  _stringValue: 
  _intValue: 0
  _floatValue: 0
  _boolValue: 1
  _vector2Value: {x: 0, y: 0}
  _vector3Value: {x: 0, y: 0, z: 0}
  _rectValue:
    serializedVersion: 2
    x: 0
    y: 0
    width: 0
    height: 0
  _colorValue: {r: 0, g: 0, b: 0, a: 1}
  _objectValue: {fileID: 0}
  _enumIntValue: 0
  _enumCached: 0
  _boundsValue:
    m_Center: {x: 0, y: 0, z: 0}
    m_Extent: {x: 0, y: 0, z: 0}
  _quaternionValue: {x: 0, y: 0, z: 0, w: 1}
  _vector4Value: {x: 0, y: 0, z: 0, w: 0}
  _animationCurveValue:
    serializedVersion: 2
    m_Curve: []
    m_PreInfinity: 2
    m_PostInfinity: 2
    m_RotationOrder: 4
  _readOnly: 0
  _private: 0
  _persistent: 0
  _indirect: 0
  _isVariant: 0
  _showDescription: 0
  _description: <Description>
  _changeListeners: []
--- !u!114 &8187336201483104437
MonoBehaviour:
  m_ObjectHideFlags: 3
  m_CorrespondingSourceObject: {fileID: 0}
  m_PrefabInstance: {fileID: 0}
  m_PrefabAsset: {fileID: 0}
  m_GameObject: {fileID: 8187336201483104470}
  m_Enabled: 0
  m_EditorHideFlags: 0
  m_Script: {fileID: 999285341, guid: 20990ec6b45e544b0b5f28b1e0c1c96b, type: 3}
  m_Name: 
  m_EditorClassIdentifier: 
  _initialized: 1
  _reset: 0
  _version: 1.2.5
  _moved: 0
  _foldout: 0
  _drawSeparator: 0
  enabledInEditor: 1
  container: {fileID: 8187336201483104440}
  editor: {fileID: 0}
  _caption: Adelante verde
  _breakpoint: 0
  _conditions:
  - {fileID: 8187336201483104442}
  _actions:
  - {fileID: 8187336201483104443}
  _elseActions: []
  _elseVisible: 0
--- !u!114 &8187336201483104442
MonoBehaviour:
  m_ObjectHideFlags: 3
  m_CorrespondingSourceObject: {fileID: 0}
  m_PrefabInstance: {fileID: 0}
  m_PrefabAsset: {fileID: 0}
  m_GameObject: {fileID: 8187336201483104470}
  m_Enabled: 0
  m_EditorHideFlags: 0
  m_Script: {fileID: 1810492686, guid: 20990ec6b45e544b0b5f28b1e0c1c96b, type: 3}
  m_Name: 
  m_EditorClassIdentifier: 
  _initialized: 1
  _reset: 0
  _version: 1.2.5
  _moved: 0
  _foldout: 1
  _drawSeparator: 0
  enabledInEditor: 1
  container: {fileID: 8187336201483104437}
  editor: {fileID: 0}
  _caption: 
  _connective: 0
  _inputType: 0
  _key: {fileID: 8187336202284258690}
  _keyVar: {fileID: 0}
  _keyCode: 0
  _keyCodeVar: {fileID: 0}
  _comparison: 0
--- !u!114 &8187336201483104443
MonoBehaviour:
  m_ObjectHideFlags: 3
  m_CorrespondingSourceObject: {fileID: 0}
  m_PrefabInstance: {fileID: 0}
  m_PrefabAsset: {fileID: 0}
  m_GameObject: {fileID: 8187336201483104470}
  m_Enabled: 0
  m_EditorHideFlags: 0
  m_Script: {fileID: 145151700, guid: 20990ec6b45e544b0b5f28b1e0c1c96b, type: 3}
  m_Name: 
  m_EditorClassIdentifier: 
  _initialized: 1
  _reset: 0
  _version: 1.2.5
  _moved: 0
  _foldout: 1
  _drawSeparator: 0
  enabledInEditor: 1
  container: {fileID: 8187336201483104437}
  editor: {fileID: 0}
  _caption: Set Position
  _breakpoint: 0
  _target: {fileID: 8187336201814160690}
  _targetVar: {fileID: 0}
  _space: 0
  _spaceVar: {fileID: 0}
  _mask: {x: 1, y: 1, z: 1}
  _maskVar: {fileID: 0}
  _relative: 1
  _relativeVar: {fileID: 0}
  _multiplier: 0.2
  _multiplierVar: {fileID: 0}
  _position: {x: 0, y: 0, z: 0}
  _positionVar: {fileID: 8187336201483104439}
--- !u!114 &8187336201483104440
MonoBehaviour:
  m_ObjectHideFlags: 3
  m_CorrespondingSourceObject: {fileID: 0}
  m_PrefabInstance: {fileID: 0}
  m_PrefabAsset: {fileID: 0}
  m_GameObject: {fileID: 8187336201483104470}
  m_Enabled: 0
  m_EditorHideFlags: 0
  m_Script: {fileID: -2147088620, guid: 20990ec6b45e544b0b5f28b1e0c1c96b, type: 3}
  m_Name: 
  m_EditorClassIdentifier: 
  _initialized: 1
  _reset: 0
  _version: 1.2.5
  _moved: 0
  _foldout: 1
  _drawSeparator: 0
  enabledInEditor: 1
  container: {fileID: 8187336201483104434}
  editor: {fileID: 0}
  _id: On Update
  _actions:
  - {fileID: 8187336201483104437}
  - {fileID: 8187336201483104444}
  - {fileID: 8187336201483104441}
  - {fileID: 8187336201483104450}
  - {fileID: 8187336201483104454}
  - {fileID: 8187336201483104463}
  - {fileID: 8187336201483104466}
  - {fileID: 8187336201483104459}
  _parameters: []
  _showParameters: 0
  _showSettings: 0
  _actionsFoldout: 1
  _ignorePause: 0
--- !u!114 &8187336201483104441
MonoBehaviour:
  m_ObjectHideFlags: 3
  m_CorrespondingSourceObject: {fileID: 0}
  m_PrefabInstance: {fileID: 0}
  m_PrefabAsset: {fileID: 0}
  m_GameObject: {fileID: 8187336201483104470}
  m_Enabled: 0
  m_EditorHideFlags: 0
  m_Script: {fileID: 999285341, guid: 20990ec6b45e544b0b5f28b1e0c1c96b, type: 3}
  m_Name: 
  m_EditorClassIdentifier: 
  _initialized: 1
  _reset: 0
  _version: 1.2.5
  _moved: 0
  _foldout: 0
  _drawSeparator: 0
  enabledInEditor: 1
  container: {fileID: 8187336201483104440}
  editor: {fileID: 0}
  _caption: Atras Verde
  _breakpoint: 0
  _conditions:
  - {fileID: 8187336201483104446}
  _actions:
  - {fileID: 8187336201483104447}
  _elseActions: []
  _elseVisible: 0
--- !u!114 &8187336201483104446
MonoBehaviour:
  m_ObjectHideFlags: 3
  m_CorrespondingSourceObject: {fileID: 0}
  m_PrefabInstance: {fileID: 0}
  m_PrefabAsset: {fileID: 0}
  m_GameObject: {fileID: 8187336201483104470}
  m_Enabled: 0
  m_EditorHideFlags: 0
  m_Script: {fileID: 1810492686, guid: 20990ec6b45e544b0b5f28b1e0c1c96b, type: 3}
  m_Name: 
  m_EditorClassIdentifier: 
  _initialized: 1
  _reset: 0
  _version: 1.2.5
  _moved: 0
  _foldout: 1
  _drawSeparator: 0
  enabledInEditor: 1
  container: {fileID: 8187336201483104441}
  editor: {fileID: 0}
  _caption: 
  _connective: 0
  _inputType: 0
  _key: {fileID: 8187336202284258688}
  _keyVar: {fileID: 0}
  _keyCode: 0
  _keyCodeVar: {fileID: 0}
  _comparison: 0
--- !u!114 &8187336201483104447
MonoBehaviour:
  m_ObjectHideFlags: 3
  m_CorrespondingSourceObject: {fileID: 0}
  m_PrefabInstance: {fileID: 0}
  m_PrefabAsset: {fileID: 0}
  m_GameObject: {fileID: 8187336201483104470}
  m_Enabled: 0
  m_EditorHideFlags: 0
  m_Script: {fileID: 145151700, guid: 20990ec6b45e544b0b5f28b1e0c1c96b, type: 3}
  m_Name: 
  m_EditorClassIdentifier: 
  _initialized: 1
  _reset: 0
  _version: 1.2.5
  _moved: 0
  _foldout: 1
  _drawSeparator: 0
  enabledInEditor: 1
  container: {fileID: 8187336201483104441}
  editor: {fileID: 0}
  _caption: Set Position
  _breakpoint: 0
  _target: {fileID: 8187336201814160690}
  _targetVar: {fileID: 0}
  _space: 0
  _spaceVar: {fileID: 0}
  _mask: {x: 1, y: 1, z: 1}
  _maskVar: {fileID: 0}
  _relative: 1
  _relativeVar: {fileID: 0}
  _multiplier: -0.2
  _multiplierVar: {fileID: 0}
  _position: {x: 0, y: 0, z: 0}
  _positionVar: {fileID: 8187336201483104439}
--- !u!114 &8187336201483104444
MonoBehaviour:
  m_ObjectHideFlags: 3
  m_CorrespondingSourceObject: {fileID: 0}
  m_PrefabInstance: {fileID: 0}
  m_PrefabAsset: {fileID: 0}
  m_GameObject: {fileID: 8187336201483104470}
  m_Enabled: 0
  m_EditorHideFlags: 0
  m_Script: {fileID: 999285341, guid: 20990ec6b45e544b0b5f28b1e0c1c96b, type: 3}
  m_Name: 
  m_EditorClassIdentifier: 
  _initialized: 1
  _reset: 0
  _version: 1.2.5
  _moved: 0
  _foldout: 0
  _drawSeparator: 0
  enabledInEditor: 1
  container: {fileID: 8187336201483104440}
  editor: {fileID: 0}
  _caption: Giro izquierda verde
  _breakpoint: 0
  _conditions:
  - {fileID: 8187336201483104445}
  _actions:
  - {fileID: 8187336201483104448}
  _elseActions: []
  _elseVisible: 0
--- !u!114 &8187336201483104445
MonoBehaviour:
  m_ObjectHideFlags: 3
  m_CorrespondingSourceObject: {fileID: 0}
  m_PrefabInstance: {fileID: 0}
  m_PrefabAsset: {fileID: 0}
  m_GameObject: {fileID: 8187336201483104470}
  m_Enabled: 0
  m_EditorHideFlags: 0
  m_Script: {fileID: 1810492686, guid: 20990ec6b45e544b0b5f28b1e0c1c96b, type: 3}
  m_Name: 
  m_EditorClassIdentifier: 
  _initialized: 1
  _reset: 0
  _version: 1.2.5
  _moved: 0
  _foldout: 1
  _drawSeparator: 0
  enabledInEditor: 1
  container: {fileID: 8187336201483104444}
  editor: {fileID: 0}
  _caption: 
  _connective: 0
  _inputType: 0
  _key: {fileID: 8187336202284258691}
  _keyVar: {fileID: 0}
  _keyCode: 0
  _keyCodeVar: {fileID: 0}
  _comparison: 0
--- !u!114 &8187336201483104450
MonoBehaviour:
  m_ObjectHideFlags: 3
  m_CorrespondingSourceObject: {fileID: 0}
  m_PrefabInstance: {fileID: 0}
  m_PrefabAsset: {fileID: 0}
  m_GameObject: {fileID: 8187336201483104470}
  m_Enabled: 0
  m_EditorHideFlags: 0
  m_Script: {fileID: 999285341, guid: 20990ec6b45e544b0b5f28b1e0c1c96b, type: 3}
  m_Name: 
  m_EditorClassIdentifier: 
  _initialized: 1
  _reset: 0
  _version: 1.2.5
  _moved: 0
  _foldout: 0
  _drawSeparator: 0
  enabledInEditor: 1
  container: {fileID: 8187336201483104440}
  editor: {fileID: 0}
  _caption: Giro derecha verde
  _breakpoint: 0
  _conditions:
  - {fileID: 8187336201483104451}
  _actions:
  - {fileID: 8187336201483104449}
  _elseActions: []
  _elseVisible: 0
--- !u!114 &8187336201483104451
MonoBehaviour:
  m_ObjectHideFlags: 3
  m_CorrespondingSourceObject: {fileID: 0}
  m_PrefabInstance: {fileID: 0}
  m_PrefabAsset: {fileID: 0}
  m_GameObject: {fileID: 8187336201483104470}
  m_Enabled: 0
  m_EditorHideFlags: 0
  m_Script: {fileID: 1810492686, guid: 20990ec6b45e544b0b5f28b1e0c1c96b, type: 3}
  m_Name: 
  m_EditorClassIdentifier: 
  _initialized: 1
  _reset: 0
  _version: 1.2.5
  _moved: 0
  _foldout: 1
  _drawSeparator: 0
  enabledInEditor: 1
  container: {fileID: 8187336201483104450}
  editor: {fileID: 0}
  _caption: 
  _connective: 0
  _inputType: 0
  _key: {fileID: 8187336202284258689}
  _keyVar: {fileID: 0}
  _keyCode: 0
  _keyCodeVar: {fileID: 0}
  _comparison: 0
--- !u!114 &8187336201483104448
MonoBehaviour:
  m_ObjectHideFlags: 3
  m_CorrespondingSourceObject: {fileID: 0}
  m_PrefabInstance: {fileID: 0}
  m_PrefabAsset: {fileID: 0}
  m_GameObject: {fileID: 8187336201483104470}
  m_Enabled: 0
  m_EditorHideFlags: 0
  m_Script: {fileID: 1382276722, guid: 20990ec6b45e544b0b5f28b1e0c1c96b, type: 3}
  m_Name: 
  m_EditorClassIdentifier: 
  _initialized: 1
  _reset: 0
  _version: 1.2.5
  _moved: 0
  _foldout: 1
  _drawSeparator: 0
  enabledInEditor: 1
  container: {fileID: 8187336201483104444}
  editor: {fileID: 0}
  _caption: Set Orbital Rotation
  _breakpoint: 0
  _target: {fileID: 8187336201814160690}
  _targetVar: {fileID: 0}
  _space: 0
  _spaceVar: {fileID: 0}
  _mask: {x: 1, y: 1, z: 1}
  _maskVar: {fileID: 0}
  _relative: 1
  _relativeVar: {fileID: 0}
  _multiplier: 1.2
  _multiplierVar: {fileID: 0}
  _pivot: {fileID: 8187336203066010213}
  _pivotVar: {fileID: 0}
  _axis: 1
  _axisVar: {fileID: 0}
  _angle: -1
  _angleVar: {fileID: 0}
--- !u!114 &8187336201483104449
MonoBehaviour:
  m_ObjectHideFlags: 3
  m_CorrespondingSourceObject: {fileID: 0}
  m_PrefabInstance: {fileID: 0}
  m_PrefabAsset: {fileID: 0}
  m_GameObject: {fileID: 8187336201483104470}
  m_Enabled: 0
  m_EditorHideFlags: 0
  m_Script: {fileID: 1382276722, guid: 20990ec6b45e544b0b5f28b1e0c1c96b, type: 3}
  m_Name: 
  m_EditorClassIdentifier: 
  _initialized: 1
  _reset: 0
  _version: 1.2.5
  _moved: 0
  _foldout: 1
  _drawSeparator: 0
  enabledInEditor: 1
  container: {fileID: 8187336201483104450}
  editor: {fileID: 0}
  _caption: Set Orbital Rotation
  _breakpoint: 0
  _target: {fileID: 8187336201814160690}
  _targetVar: {fileID: 0}
  _space: 0
  _spaceVar: {fileID: 0}
  _mask: {x: 1, y: 1, z: 1}
  _maskVar: {fileID: 0}
  _relative: 1
  _relativeVar: {fileID: 0}
  _multiplier: 1.2
  _multiplierVar: {fileID: 0}
  _pivot: {fileID: 8187336203066010213}
  _pivotVar: {fileID: 0}
  _axis: 1
  _axisVar: {fileID: 0}
  _angle: 1
  _angleVar: {fileID: 0}
--- !u!114 &8187336201483104454
MonoBehaviour:
  m_ObjectHideFlags: 3
  m_CorrespondingSourceObject: {fileID: 0}
  m_PrefabInstance: {fileID: 0}
  m_PrefabAsset: {fileID: 0}
  m_GameObject: {fileID: 8187336201483104470}
  m_Enabled: 0
  m_EditorHideFlags: 0
  m_Script: {fileID: 999285341, guid: 20990ec6b45e544b0b5f28b1e0c1c96b, type: 3}
  m_Name: 
  m_EditorClassIdentifier: 
  _initialized: 1
  _reset: 0
  _version: 1.2.5
  _moved: 0
  _foldout: 1
  _drawSeparator: 0
  enabledInEditor: 1
  container: {fileID: 8187336201483104440}
  editor: {fileID: 0}
  _caption: Salto verde
  _breakpoint: 0
  _conditions:
  - {fileID: 8187336201483104455}
  - {fileID: 8187336201483104453}
  _actions:
  - {fileID: 8187336201483104452}
  _elseActions: []
  _elseVisible: 0
--- !u!114 &8187336201483104455
MonoBehaviour:
  m_ObjectHideFlags: 3
  m_CorrespondingSourceObject: {fileID: 0}
  m_PrefabInstance: {fileID: 0}
  m_PrefabAsset: {fileID: 0}
  m_GameObject: {fileID: 8187336201483104470}
  m_Enabled: 0
  m_EditorHideFlags: 0
  m_Script: {fileID: 1810492686, guid: 20990ec6b45e544b0b5f28b1e0c1c96b, type: 3}
  m_Name: 
  m_EditorClassIdentifier: 
  _initialized: 1
  _reset: 0
  _version: 1.2.5
  _moved: 0
  _foldout: 1
  _drawSeparator: 0
  enabledInEditor: 1
  container: {fileID: 8187336201483104454}
  editor: {fileID: 0}
  _caption: 
  _connective: 0
  _inputType: 0
  _key: {fileID: 8187336202284258684}
  _keyVar: {fileID: 0}
  _keyCode: 0
  _keyCodeVar: {fileID: 0}
  _comparison: 0
--- !u!114 &8187336201483104452
MonoBehaviour:
  m_ObjectHideFlags: 3
  m_CorrespondingSourceObject: {fileID: 0}
  m_PrefabInstance: {fileID: 0}
  m_PrefabAsset: {fileID: 0}
  m_GameObject: {fileID: 8187336201483104470}
  m_Enabled: 0
  m_EditorHideFlags: 0
  m_Script: {fileID: -1759242366, guid: 20990ec6b45e544b0b5f28b1e0c1c96b, type: 3}
  m_Name: 
  m_EditorClassIdentifier: 
  _initialized: 1
  _reset: 0
  _version: 1.2.5
  _moved: 0
  _foldout: 1
  _drawSeparator: 0
  enabledInEditor: 1
  container: {fileID: 8187336201483104454}
  editor: {fileID: 0}
  _caption: Add Force
  _breakpoint: 0
  _target: {fileID: 8187336201814160694}
  _targetVar: {fileID: 0}
  _mode: 0
  _modeVar: {fileID: 0}
  _type: 1
  _directionVector3: {x: 0, y: 1, z: 0}
  _directionForce: {fileID: 0}
  _directionVar: {fileID: 0}
  _relative: 1
  _relativeVar: {fileID: 0}
  _multiplier: 100
  _multiplierVar: {fileID: 0}
--- !u!114 &8187336201483104453
MonoBehaviour:
  m_ObjectHideFlags: 3
  m_CorrespondingSourceObject: {fileID: 0}
  m_PrefabInstance: {fileID: 0}
  m_PrefabAsset: {fileID: 0}
  m_GameObject: {fileID: 8187336201483104470}
  m_Enabled: 0
  m_EditorHideFlags: 0
  m_Script: {fileID: -1358400679, guid: 20990ec6b45e544b0b5f28b1e0c1c96b, type: 3}
  m_Name: 
  m_EditorClassIdentifier: 
  _initialized: 1
  _reset: 0
  _version: 1.2.5
  _moved: 0
  _foldout: 1
  _drawSeparator: 0
  enabledInEditor: 1
  container: {fileID: 8187336201483104454}
  editor: {fileID: 0}
  _caption: 
  _connective: 0
  _ray: {fileID: 8187336201225217105}
  _rayVar: {fileID: 0}
  _comparison: 0
  _collider: {fileID: 0}
  _collider2d: {fileID: 0}
  _colliderVar: {fileID: 0}
  _layers:
    serializedVersion: 2
    m_Bits: 65531
--- !u!114 &8187336201483104458
MonoBehaviour:
  m_ObjectHideFlags: 3
  m_CorrespondingSourceObject: {fileID: 0}
  m_PrefabInstance: {fileID: 0}
  m_PrefabAsset: {fileID: 0}
  m_GameObject: {fileID: 8187336201483104470}
  m_Enabled: 0
  m_EditorHideFlags: 0
  m_Script: {fileID: -1282471346, guid: 20990ec6b45e544b0b5f28b1e0c1c96b, type: 3}
  m_Name: 
  m_EditorClassIdentifier: 
  _initialized: 1
  _reset: 0
  _version: 1.2.5
  _moved: 0
  _foldout: 1
  _drawSeparator: 0
  enabledInEditor: 1
  container: {fileID: 8187336201483104434}
  editor: {fileID: 0}
  _id: Salto
  _rayType: 0
  _originType: 0
  _originTransform: {fileID: 8187336201814160690}
  _originVector2: {x: 0, y: 0}
  _originVector3: {x: 0, y: 0, z: 0}
  _originVar: {fileID: 0}
  _directionType: 2
  _directionTransform: {fileID: 0}
  _directionVector2: {x: 0, y: -1}
  _directionVector3: {x: 0, y: -1, z: 0}
  _directionVar: {fileID: 0}
  _length: 2
  _lengthVar: {fileID: 0}
  _color: {r: 0.15217781, g: 0, b: 1, a: 1}
--- !u!114 &8187336201483104459
MonoBehaviour:
  m_ObjectHideFlags: 3
  m_CorrespondingSourceObject: {fileID: 0}
  m_PrefabInstance: {fileID: 0}
  m_PrefabAsset: {fileID: 0}
  m_GameObject: {fileID: 8187336201483104470}
  m_Enabled: 0
  m_EditorHideFlags: 0
  m_Script: {fileID: 999285341, guid: 20990ec6b45e544b0b5f28b1e0c1c96b, type: 3}
  m_Name: 
  m_EditorClassIdentifier: 
  _initialized: 1
  _reset: 0
  _version: 1.2.5
  _moved: 0
  _foldout: 1
  _drawSeparator: 0
  enabledInEditor: 1
  container: {fileID: 8187336201483104440}
  editor: {fileID: 0}
  _caption: Lanzamiento verde
  _breakpoint: 0
  _conditions:
  - {fileID: 8187336201483104456}
  - {fileID: 8187336201483104457}
  _actions:
  - {fileID: 8187336201483104462}
  _elseActions: []
  _elseVisible: 0
--- !u!114 &8187336201483104456
MonoBehaviour:
  m_ObjectHideFlags: 3
  m_CorrespondingSourceObject: {fileID: 0}
  m_PrefabInstance: {fileID: 0}
  m_PrefabAsset: {fileID: 0}
  m_GameObject: {fileID: 8187336201483104470}
  m_Enabled: 0
  m_EditorHideFlags: 0
  m_Script: {fileID: 1810492686, guid: 20990ec6b45e544b0b5f28b1e0c1c96b, type: 3}
  m_Name: 
  m_EditorClassIdentifier: 
  _initialized: 1
  _reset: 0
  _version: 1.2.5
  _moved: 0
  _foldout: 1
  _drawSeparator: 0
  enabledInEditor: 1
  container: {fileID: 8187336201483104459}
  editor: {fileID: 0}
  _caption: 
  _connective: 0
  _inputType: 0
  _key: {fileID: 8187336202284258684}
  _keyVar: {fileID: 0}
  _keyCode: 32
  _keyCodeVar: {fileID: 0}
  _comparison: 0
--- !u!114 &8187336201483104457
MonoBehaviour:
  m_ObjectHideFlags: 3
  m_CorrespondingSourceObject: {fileID: 0}
  m_PrefabInstance: {fileID: 0}
  m_PrefabAsset: {fileID: 0}
  m_GameObject: {fileID: 8187336201483104470}
  m_Enabled: 0
  m_EditorHideFlags: 0
  m_Script: {fileID: -1358400679, guid: 20990ec6b45e544b0b5f28b1e0c1c96b, type: 3}
  m_Name: 
  m_EditorClassIdentifier: 
  _initialized: 1
  _reset: 0
  _version: 1.2.5
  _moved: 0
  _foldout: 1
  _drawSeparator: 0
  enabledInEditor: 1
  container: {fileID: 8187336201483104459}
  editor: {fileID: 0}
  _caption: 
  _connective: 0
  _ray: {fileID: 8187336201225217105}
  _rayVar: {fileID: 0}
  _comparison: 2
  _collider: {fileID: 0}
  _collider2d: {fileID: 0}
  _colliderVar: {fileID: 0}
  _layers:
    serializedVersion: 2
    m_Bits: 65531
--- !u!114 &8187336201483104462
MonoBehaviour:
  m_ObjectHideFlags: 3
  m_CorrespondingSourceObject: {fileID: 0}
  m_PrefabInstance: {fileID: 0}
  m_PrefabAsset: {fileID: 0}
  m_GameObject: {fileID: 8187336201483104470}
  m_Enabled: 0
  m_EditorHideFlags: 0
  m_Script: {fileID: -1759242366, guid: 20990ec6b45e544b0b5f28b1e0c1c96b, type: 3}
  m_Name: 
  m_EditorClassIdentifier: 
  _initialized: 1
  _reset: 0
  _version: 1.2.5
  _moved: 0
  _foldout: 1
  _drawSeparator: 0
  enabledInEditor: 1
  container: {fileID: 8187336201483104459}
  editor: {fileID: 0}
  _caption: Add Force
  _breakpoint: 0
  _target: {fileID: 8187336201814160694}
  _targetVar: {fileID: 0}
  _mode: 1
  _modeVar: {fileID: 0}
  _type: 1
  _directionVector3: {x: 0, y: 1, z: 0}
  _directionForce: {fileID: 0}
  _directionVar: {fileID: 0}
  _relative: 1
  _relativeVar: {fileID: 0}
  _multiplier: 9
  _multiplierVar: {fileID: 0}
--- !u!114 &8187336201483104463
MonoBehaviour:
  m_ObjectHideFlags: 3
  m_CorrespondingSourceObject: {fileID: 0}
  m_PrefabInstance: {fileID: 0}
  m_PrefabAsset: {fileID: 0}
  m_GameObject: {fileID: 8187336201483104470}
  m_Enabled: 0
  m_EditorHideFlags: 0
  m_Script: {fileID: 999285341, guid: 20990ec6b45e544b0b5f28b1e0c1c96b, type: 3}
  m_Name: 
  m_EditorClassIdentifier: 
  _initialized: 1
  _reset: 0
  _version: 1.2.5
  _moved: 0
  _foldout: 0
  _drawSeparator: 0
  enabledInEditor: 1
  container: {fileID: 8187336201483104440}
  editor: {fileID: 0}
  _caption: Gravedad 1 Verde
  _breakpoint: 0
  _conditions:
  - {fileID: 8187336201483104460}
  _actions:
  - {fileID: 8187336201483104461}
  _elseActions: []
  _elseVisible: 0
--- !u!114 &8187336201483104460
MonoBehaviour:
  m_ObjectHideFlags: 3
  m_CorrespondingSourceObject: {fileID: 0}
  m_PrefabInstance: {fileID: 0}
  m_PrefabAsset: {fileID: 0}
  m_GameObject: {fileID: 8187336201483104470}
  m_Enabled: 0
  m_EditorHideFlags: 0
  m_Script: {fileID: -1358400679, guid: 20990ec6b45e544b0b5f28b1e0c1c96b, type: 3}
  m_Name: 
  m_EditorClassIdentifier: 
  _initialized: 1
  _reset: 0
  _version: 1.2.5
  _moved: 0
  _foldout: 1
  _drawSeparator: 0
  enabledInEditor: 1
  container: {fileID: 8187336201483104463}
  editor: {fileID: 0}
  _caption: 
  _connective: 0
  _ray: {fileID: 8187336201225217105}
  _rayVar: {fileID: 0}
  _comparison: 1
  _collider: {fileID: 0}
  _collider2d: {fileID: 0}
  _colliderVar: {fileID: 0}
  _layers:
    serializedVersion: 2
    m_Bits: 65531
--- !u!114 &8187336201483104461
MonoBehaviour:
  m_ObjectHideFlags: 3
  m_CorrespondingSourceObject: {fileID: 0}
  m_PrefabInstance: {fileID: 0}
  m_PrefabAsset: {fileID: 0}
  m_GameObject: {fileID: 8187336201483104470}
  m_Enabled: 0
  m_EditorHideFlags: 0
  m_Script: {fileID: -1785964967, guid: 20990ec6b45e544b0b5f28b1e0c1c96b, type: 3}
  m_Name: 
  m_EditorClassIdentifier: 
  _initialized: 1
  _reset: 0
  _version: 1.2.5
  _moved: 0
  _foldout: 1
  _drawSeparator: 0
  enabledInEditor: 1
  container: {fileID: 8187336201483104463}
  editor: {fileID: 0}
  _caption: Set Rigidbody Property
  _breakpoint: 0
  _target: {fileID: 8187336201814160694}
  _targetVar: {fileID: 0}
  _property: 13
  _intValue: 0
  _floatValue: 9
  _boolValue: 0
  _vector3Value: {x: 0, y: 0, z: 0}
  _collisionDetectionModeValue: 0
  _rigidbodyConstraintsValue: 0
  _rigidbodyInterpolationValue: 0
  _valueVar: {fileID: 0}
--- !u!114 &8187336201483104466
MonoBehaviour:
  m_ObjectHideFlags: 3
  m_CorrespondingSourceObject: {fileID: 0}
  m_PrefabInstance: {fileID: 0}
  m_PrefabAsset: {fileID: 0}
  m_GameObject: {fileID: 8187336201483104470}
  m_Enabled: 0
  m_EditorHideFlags: 0
  m_Script: {fileID: 999285341, guid: 20990ec6b45e544b0b5f28b1e0c1c96b, type: 3}
  m_Name: 
  m_EditorClassIdentifier: 
  _initialized: 1
  _reset: 0
  _version: 1.2.5
  _moved: 0
  _foldout: 1
  _drawSeparator: 0
  enabledInEditor: 1
  container: {fileID: 8187336201483104440}
  editor: {fileID: 0}
  _caption: Gravedad 2 Verde
  _breakpoint: 0
  _conditions:
  - {fileID: 8187336201483104467}
  _actions:
  - {fileID: 8187336201483104464}
  _elseActions: []
  _elseVisible: 0
--- !u!114 &8187336201483104467
MonoBehaviour:
  m_ObjectHideFlags: 3
  m_CorrespondingSourceObject: {fileID: 0}
  m_PrefabInstance: {fileID: 0}
  m_PrefabAsset: {fileID: 0}
  m_GameObject: {fileID: 8187336201483104470}
  m_Enabled: 0
  m_EditorHideFlags: 0
  m_Script: {fileID: -1358400679, guid: 20990ec6b45e544b0b5f28b1e0c1c96b, type: 3}
  m_Name: 
  m_EditorClassIdentifier: 
  _initialized: 1
  _reset: 0
  _version: 1.2.5
  _moved: 0
  _foldout: 1
  _drawSeparator: 0
  enabledInEditor: 1
  container: {fileID: 8187336201483104466}
  editor: {fileID: 0}
  _caption: 
  _connective: 0
  _ray: {fileID: 8187336201225217105}
  _rayVar: {fileID: 0}
  _comparison: 0
  _collider: {fileID: 0}
  _collider2d: {fileID: 0}
  _colliderVar: {fileID: 0}
  _layers:
    serializedVersion: 2
    m_Bits: 65531
--- !u!114 &8187336201483104464
MonoBehaviour:
  m_ObjectHideFlags: 3
  m_CorrespondingSourceObject: {fileID: 0}
  m_PrefabInstance: {fileID: 0}
  m_PrefabAsset: {fileID: 0}
  m_GameObject: {fileID: 8187336201483104470}
  m_Enabled: 0
  m_EditorHideFlags: 0
  m_Script: {fileID: -1785964967, guid: 20990ec6b45e544b0b5f28b1e0c1c96b, type: 3}
  m_Name: 
  m_EditorClassIdentifier: 
  _initialized: 1
  _reset: 0
  _version: 1.2.5
  _moved: 0
  _foldout: 1
  _drawSeparator: 0
  enabledInEditor: 1
  container: {fileID: 8187336201483104466}
  editor: {fileID: 0}
  _caption: Set Rigidbody Property
  _breakpoint: 0
  _target: {fileID: 8187336201814160694}
  _targetVar: {fileID: 0}
  _property: 13
  _intValue: 0
  _floatValue: 10
  _boolValue: 0
  _vector3Value: {x: 0, y: 0, z: 0}
  _collisionDetectionModeValue: 0
  _rigidbodyConstraintsValue: 0
  _rigidbodyInterpolationValue: 0
  _valueVar: {fileID: 0}
--- !u!1 &8187336201814160695
GameObject:
  m_ObjectHideFlags: 0
  m_CorrespondingSourceObject: {fileID: 0}
  m_PrefabInstance: {fileID: 0}
  m_PrefabAsset: {fileID: 0}
  serializedVersion: 6
  m_Component:
  - component: {fileID: 8187336201814160690}
  - component: {fileID: 8187336201814160691}
  - component: {fileID: 8187336201814160688}
  - component: {fileID: 8187336201814160689}
  - component: {fileID: 8187336201814160694}
  m_Layer: 0
  m_Name: Verde
  m_TagString: Untagged
  m_Icon: {fileID: 0}
  m_NavMeshLayer: 0
  m_StaticEditorFlags: 0
  m_IsActive: 1
--- !u!4 &8187336201814160690
Transform:
  m_ObjectHideFlags: 0
  m_CorrespondingSourceObject: {fileID: 0}
  m_PrefabInstance: {fileID: 0}
  m_PrefabAsset: {fileID: 0}
  m_GameObject: {fileID: 8187336201814160695}
  m_LocalRotation: {x: 0, y: 0, z: 0, w: 1}
  m_LocalPosition: {x: 14.19, y: 2.061, z: 2.02}
  m_LocalScale: {x: 1, y: 1, z: 1}
  m_Children:
  - {fileID: 8187336203066010213}
  - {fileID: 8187336201483104465}
  - {fileID: 8187336202163817109}
  - {fileID: 309825274}
  - {fileID: 1360618679}
  m_Father: {fileID: 0}
  m_RootOrder: 0
  m_LocalEulerAnglesHint: {x: 0, y: 0, z: 0}
--- !u!33 &8187336201814160691
MeshFilter:
  m_ObjectHideFlags: 0
  m_CorrespondingSourceObject: {fileID: 0}
  m_PrefabInstance: {fileID: 0}
  m_PrefabAsset: {fileID: 0}
  m_GameObject: {fileID: 8187336201814160695}
  m_Mesh: {fileID: 10202, guid: 0000000000000000e000000000000000, type: 0}
--- !u!23 &8187336201814160688
MeshRenderer:
  m_ObjectHideFlags: 0
  m_CorrespondingSourceObject: {fileID: 0}
  m_PrefabInstance: {fileID: 0}
  m_PrefabAsset: {fileID: 0}
  m_GameObject: {fileID: 8187336201814160695}
  m_Enabled: 1
  m_CastShadows: 1
  m_ReceiveShadows: 1
  m_DynamicOccludee: 1
  m_MotionVectors: 1
  m_LightProbeUsage: 1
  m_ReflectionProbeUsage: 1
  m_RayTracingMode: 2
  m_RenderingLayerMask: 1
  m_RendererPriority: 0
  m_Materials:
  - {fileID: 2100000, guid: 735665606fda0c14cb12bc536aa26dc7, type: 2}
  m_StaticBatchInfo:
    firstSubMesh: 0
    subMeshCount: 0
  m_StaticBatchRoot: {fileID: 0}
  m_ProbeAnchor: {fileID: 0}
  m_LightProbeVolumeOverride: {fileID: 0}
  m_ScaleInLightmap: 1
  m_ReceiveGI: 1
  m_PreserveUVs: 0
  m_IgnoreNormalsForChartDetection: 0
  m_ImportantGI: 0
  m_StitchLightmapSeams: 1
  m_SelectedEditorRenderState: 3
  m_MinimumChartSize: 4
  m_AutoUVMaxDistance: 0.5
  m_AutoUVMaxAngle: 89
  m_LightmapParameters: {fileID: 0}
  m_SortingLayerID: 0
  m_SortingLayer: 0
  m_SortingOrder: 0
--- !u!65 &8187336201814160689
BoxCollider:
  m_ObjectHideFlags: 0
  m_CorrespondingSourceObject: {fileID: 0}
  m_PrefabInstance: {fileID: 0}
  m_PrefabAsset: {fileID: 0}
  m_GameObject: {fileID: 8187336201814160695}
  m_Material: {fileID: 0}
  m_IsTrigger: 0
  m_Enabled: 1
  serializedVersion: 2
  m_Size: {x: 1, y: 1, z: 1}
  m_Center: {x: 0, y: 0, z: 0}
--- !u!54 &8187336201814160694
Rigidbody:
  m_ObjectHideFlags: 0
  m_CorrespondingSourceObject: {fileID: 0}
  m_PrefabInstance: {fileID: 0}
  m_PrefabAsset: {fileID: 0}
  m_GameObject: {fileID: 8187336201814160695}
  serializedVersion: 2
  m_Mass: 2
  m_Drag: 0
  m_AngularDrag: 0.05
  m_UseGravity: 1
  m_IsKinematic: 0
  m_Interpolate: 0
  m_Constraints: 112
  m_CollisionDetection: 0
--- !u!1 &8187336202163817114
GameObject:
  m_ObjectHideFlags: 0
  m_CorrespondingSourceObject: {fileID: 0}
  m_PrefabInstance: {fileID: 0}
  m_PrefabAsset: {fileID: 0}
  serializedVersion: 6
  m_Component:
  - component: {fileID: 8187336202163817109}
  - component: {fileID: 8187336202163817110}
  - component: {fileID: 8187336202163817111}
  - component: {fileID: 8187336202163817108}
  m_Layer: 0
  m_Name: Sphere (1)
  m_TagString: Untagged
  m_Icon: {fileID: 0}
  m_NavMeshLayer: 0
  m_StaticEditorFlags: 0
  m_IsActive: 1
--- !u!4 &8187336202163817109
Transform:
  m_ObjectHideFlags: 0
  m_CorrespondingSourceObject: {fileID: 0}
  m_PrefabInstance: {fileID: 0}
  m_PrefabAsset: {fileID: 0}
  m_GameObject: {fileID: 8187336202163817114}
  m_LocalRotation: {x: -0, y: -0, z: -0, w: 1}
  m_LocalPosition: {x: 0, y: 0.51, z: 0.326}
  m_LocalScale: {x: 0.28179333, y: 0.33876488, z: 0.26787388}
  m_Children: []
  m_Father: {fileID: 8187336201814160690}
  m_RootOrder: 2
  m_LocalEulerAnglesHint: {x: 0, y: 0, z: 0}
--- !u!33 &8187336202163817110
MeshFilter:
  m_ObjectHideFlags: 0
  m_CorrespondingSourceObject: {fileID: 0}
  m_PrefabInstance: {fileID: 0}
  m_PrefabAsset: {fileID: 0}
  m_GameObject: {fileID: 8187336202163817114}
  m_Mesh: {fileID: 10207, guid: 0000000000000000e000000000000000, type: 0}
--- !u!23 &8187336202163817111
MeshRenderer:
  m_ObjectHideFlags: 0
  m_CorrespondingSourceObject: {fileID: 0}
  m_PrefabInstance: {fileID: 0}
  m_PrefabAsset: {fileID: 0}
  m_GameObject: {fileID: 8187336202163817114}
  m_Enabled: 1
  m_CastShadows: 1
  m_ReceiveShadows: 1
  m_DynamicOccludee: 1
  m_MotionVectors: 1
  m_LightProbeUsage: 1
  m_ReflectionProbeUsage: 1
  m_RayTracingMode: 2
  m_RenderingLayerMask: 1
  m_RendererPriority: 0
  m_Materials:
  - {fileID: 2100000, guid: 297e3a11e7d07fc48b4f71056b4f927f, type: 2}
  m_StaticBatchInfo:
    firstSubMesh: 0
    subMeshCount: 0
  m_StaticBatchRoot: {fileID: 0}
  m_ProbeAnchor: {fileID: 0}
  m_LightProbeVolumeOverride: {fileID: 0}
  m_ScaleInLightmap: 1
  m_ReceiveGI: 1
  m_PreserveUVs: 0
  m_IgnoreNormalsForChartDetection: 0
  m_ImportantGI: 0
  m_StitchLightmapSeams: 1
  m_SelectedEditorRenderState: 3
  m_MinimumChartSize: 4
  m_AutoUVMaxDistance: 0.5
  m_AutoUVMaxAngle: 89
  m_LightmapParameters: {fileID: 0}
  m_SortingLayerID: 0
  m_SortingLayer: 0
  m_SortingOrder: 0
--- !u!135 &8187336202163817108
SphereCollider:
  m_ObjectHideFlags: 0
  m_CorrespondingSourceObject: {fileID: 0}
  m_PrefabInstance: {fileID: 0}
  m_PrefabAsset: {fileID: 0}
  m_GameObject: {fileID: 8187336202163817114}
  m_Material: {fileID: 0}
  m_IsTrigger: 0
  m_Enabled: 1
  serializedVersion: 2
  m_Radius: 0.5
  m_Center: {x: 0, y: 0, z: 0}
--- !u!1 &8187336202284258692
GameObject:
  m_ObjectHideFlags: 0
  m_CorrespondingSourceObject: {fileID: 0}
  m_PrefabInstance: {fileID: 0}
  m_PrefabAsset: {fileID: 0}
  serializedVersion: 6
  m_Component:
  - component: {fileID: 8187336202284258695}
  - component: {fileID: 8187336202284258685}
  - component: {fileID: 8187336202284258690}
  - component: {fileID: 8187336202284258691}
  - component: {fileID: 8187336202284258688}
  - component: {fileID: 8187336202284258689}
  - component: {fileID: 8187336202284258694}
  - component: {fileID: 8187336202284258684}
  m_Layer: 0
  m_Name: Teclas verde
  m_TagString: Untagged
  m_Icon: {fileID: 0}
  m_NavMeshLayer: 0
  m_StaticEditorFlags: 0
  m_IsActive: 1
--- !u!4 &8187336202284258695
Transform:
  m_ObjectHideFlags: 0
  m_CorrespondingSourceObject: {fileID: 0}
  m_PrefabInstance: {fileID: 0}
  m_PrefabAsset: {fileID: 0}
  m_GameObject: {fileID: 8187336202284258692}
  m_LocalRotation: {x: -0, y: -0, z: -0, w: 1}
  m_LocalPosition: {x: 0, y: 0, z: 0}
  m_LocalScale: {x: 1, y: 1, z: 1}
  m_Children: []
  m_Father: {fileID: 8187336201483104465}
  m_RootOrder: 0
  m_LocalEulerAnglesHint: {x: 0, y: 0, z: 0}
--- !u!114 &8187336202284258685
MonoBehaviour:
  m_ObjectHideFlags: 0
  m_CorrespondingSourceObject: {fileID: 0}
  m_PrefabInstance: {fileID: 0}
  m_PrefabAsset: {fileID: 0}
  m_GameObject: {fileID: 8187336202284258692}
  m_Enabled: 1
  m_EditorHideFlags: 0
  m_Script: {fileID: 1528663654, guid: 20990ec6b45e544b0b5f28b1e0c1c96b, type: 3}
  m_Name: 
  m_EditorClassIdentifier: 
  _initialized: 1
  _reset: 0
  _version: 1.2.5
  _moved: 0
  _blocks:
  - {fileID: 8187336202284258690}
  - {fileID: 8187336202284258691}
  - {fileID: 8187336202284258688}
  - {fileID: 8187336202284258689}
  - {fileID: 8187336202284258694}
  - {fileID: 8187336202284258684}
  editor: {fileID: 0}
  _showSettings: 0
  _displayMode: 0
  _windowTitle: GameFlow
  _windowMinSize: {x: 240, y: 64}
  _windowMaxSize: {x: 600, y: 400}
--- !u!114 &8187336202284258690
MonoBehaviour:
  m_ObjectHideFlags: 3
  m_CorrespondingSourceObject: {fileID: 0}
  m_PrefabInstance: {fileID: 0}
  m_PrefabAsset: {fileID: 0}
  m_GameObject: {fileID: 8187336202284258692}
  m_Enabled: 1
  m_EditorHideFlags: 0
  m_Script: {fileID: -1187461405, guid: 20990ec6b45e544b0b5f28b1e0c1c96b, type: 3}
  m_Name: 
  m_EditorClassIdentifier: 
  _initialized: 1
  _reset: 0
  _version: 1.2.5
  _moved: 0
  _foldout: 1
  _drawSeparator: 0
  enabledInEditor: 1
  container: {fileID: 8187336202284258685}
  editor: {fileID: 0}
  _id: Green up arrow
  _code: 273
  _codeVar: {fileID: 0}
  _enabledInPause: 0
  _enabledInPauseVar: {fileID: 0}
--- !u!114 &8187336202284258691
MonoBehaviour:
  m_ObjectHideFlags: 3
  m_CorrespondingSourceObject: {fileID: 0}
  m_PrefabInstance: {fileID: 0}
  m_PrefabAsset: {fileID: 0}
  m_GameObject: {fileID: 8187336202284258692}
  m_Enabled: 1
  m_EditorHideFlags: 0
  m_Script: {fileID: -1187461405, guid: 20990ec6b45e544b0b5f28b1e0c1c96b, type: 3}
  m_Name: 
  m_EditorClassIdentifier: 
  _initialized: 1
  _reset: 0
  _version: 1.2.5
  _moved: 0
  _foldout: 1
  _drawSeparator: 0
  enabledInEditor: 1
  container: {fileID: 8187336202284258685}
  editor: {fileID: 0}
  _id: Green Left arrow
  _code: 276
  _codeVar: {fileID: 0}
  _enabledInPause: 0
  _enabledInPauseVar: {fileID: 0}
--- !u!114 &8187336202284258688
MonoBehaviour:
  m_ObjectHideFlags: 3
  m_CorrespondingSourceObject: {fileID: 0}
  m_PrefabInstance: {fileID: 0}
  m_PrefabAsset: {fileID: 0}
  m_GameObject: {fileID: 8187336202284258692}
  m_Enabled: 1
  m_EditorHideFlags: 0
  m_Script: {fileID: -1187461405, guid: 20990ec6b45e544b0b5f28b1e0c1c96b, type: 3}
  m_Name: 
  m_EditorClassIdentifier: 
  _initialized: 1
  _reset: 0
  _version: 1.2.5
  _moved: 0
  _foldout: 1
  _drawSeparator: 0
  enabledInEditor: 1
  container: {fileID: 8187336202284258685}
  editor: {fileID: 0}
  _id: Green Down arrow
  _code: 274
  _codeVar: {fileID: 0}
  _enabledInPause: 0
  _enabledInPauseVar: {fileID: 0}
--- !u!114 &8187336202284258689
MonoBehaviour:
  m_ObjectHideFlags: 3
  m_CorrespondingSourceObject: {fileID: 0}
  m_PrefabInstance: {fileID: 0}
  m_PrefabAsset: {fileID: 0}
  m_GameObject: {fileID: 8187336202284258692}
  m_Enabled: 1
  m_EditorHideFlags: 0
  m_Script: {fileID: -1187461405, guid: 20990ec6b45e544b0b5f28b1e0c1c96b, type: 3}
  m_Name: 
  m_EditorClassIdentifier: 
  _initialized: 1
  _reset: 0
  _version: 1.2.5
  _moved: 0
  _foldout: 1
  _drawSeparator: 0
  enabledInEditor: 1
  container: {fileID: 8187336202284258685}
  editor: {fileID: 0}
  _id: Green Right arrow
  _code: 275
  _codeVar: {fileID: 0}
  _enabledInPause: 0
  _enabledInPauseVar: {fileID: 0}
--- !u!114 &8187336202284258694
MonoBehaviour:
  m_ObjectHideFlags: 3
  m_CorrespondingSourceObject: {fileID: 0}
  m_PrefabInstance: {fileID: 0}
  m_PrefabAsset: {fileID: 0}
  m_GameObject: {fileID: 8187336202284258692}
  m_Enabled: 1
  m_EditorHideFlags: 0
  m_Script: {fileID: -1187461405, guid: 20990ec6b45e544b0b5f28b1e0c1c96b, type: 3}
  m_Name: 
  m_EditorClassIdentifier: 
  _initialized: 1
  _reset: 0
  _version: 1.2.5
  _moved: 0
  _foldout: 1
  _drawSeparator: 0
  enabledInEditor: 1
  container: {fileID: 8187336202284258685}
  editor: {fileID: 0}
  _id: Green 1
  _code: 257
  _codeVar: {fileID: 0}
  _enabledInPause: 0
  _enabledInPauseVar: {fileID: 0}
--- !u!114 &8187336202284258684
MonoBehaviour:
  m_ObjectHideFlags: 3
  m_CorrespondingSourceObject: {fileID: 0}
  m_PrefabInstance: {fileID: 0}
  m_PrefabAsset: {fileID: 0}
  m_GameObject: {fileID: 8187336202284258692}
  m_Enabled: 1
  m_EditorHideFlags: 0
  m_Script: {fileID: -1187461405, guid: 20990ec6b45e544b0b5f28b1e0c1c96b, type: 3}
  m_Name: 
  m_EditorClassIdentifier: 
  _initialized: 1
  _reset: 0
  _version: 1.2.5
  _moved: 0
  _foldout: 1
  _drawSeparator: 0
  enabledInEditor: 1
  container: {fileID: 8187336202284258685}
  editor: {fileID: 0}
  _id: Green 0
  _code: 256
  _codeVar: {fileID: 0}
  _enabledInPause: 0
  _enabledInPauseVar: {fileID: 0}
--- !u!1 &8187336203066010218
GameObject:
  m_ObjectHideFlags: 0
  m_CorrespondingSourceObject: {fileID: 0}
  m_PrefabInstance: {fileID: 0}
  m_PrefabAsset: {fileID: 0}
  serializedVersion: 6
  m_Component:
  - component: {fileID: 8187336203066010213}
  - component: {fileID: 8187336203066010214}
  - component: {fileID: 8187336203066010215}
  - component: {fileID: 8187336203066010212}
  m_Layer: 0
  m_Name: Sphere
  m_TagString: Untagged
  m_Icon: {fileID: 0}
  m_NavMeshLayer: 0
  m_StaticEditorFlags: 0
  m_IsActive: 1
--- !u!4 &8187336203066010213
Transform:
  m_ObjectHideFlags: 0
  m_CorrespondingSourceObject: {fileID: 0}
  m_PrefabInstance: {fileID: 0}
  m_PrefabAsset: {fileID: 0}
  m_GameObject: {fileID: 8187336203066010218}
  m_LocalRotation: {x: -0, y: -0, z: -0, w: 1}
  m_LocalPosition: {x: 0, y: 0, z: 0}
  m_LocalScale: {x: 0.28179333, y: 0.33876488, z: 0.26787388}
  m_Children: []
  m_Father: {fileID: 8187336201814160690}
  m_RootOrder: 0
  m_LocalEulerAnglesHint: {x: 0, y: 0, z: 0}
--- !u!33 &8187336203066010214
MeshFilter:
  m_ObjectHideFlags: 0
  m_CorrespondingSourceObject: {fileID: 0}
  m_PrefabInstance: {fileID: 0}
  m_PrefabAsset: {fileID: 0}
  m_GameObject: {fileID: 8187336203066010218}
  m_Mesh: {fileID: 10207, guid: 0000000000000000e000000000000000, type: 0}
--- !u!23 &8187336203066010215
MeshRenderer:
  m_ObjectHideFlags: 0
  m_CorrespondingSourceObject: {fileID: 0}
  m_PrefabInstance: {fileID: 0}
  m_PrefabAsset: {fileID: 0}
  m_GameObject: {fileID: 8187336203066010218}
  m_Enabled: 1
  m_CastShadows: 1
  m_ReceiveShadows: 1
  m_DynamicOccludee: 1
  m_MotionVectors: 1
  m_LightProbeUsage: 1
  m_ReflectionProbeUsage: 1
  m_RayTracingMode: 2
  m_RenderingLayerMask: 1
  m_RendererPriority: 0
  m_Materials:
  - {fileID: 2100000, guid: 297e3a11e7d07fc48b4f71056b4f927f, type: 2}
  m_StaticBatchInfo:
    firstSubMesh: 0
    subMeshCount: 0
  m_StaticBatchRoot: {fileID: 0}
  m_ProbeAnchor: {fileID: 0}
  m_LightProbeVolumeOverride: {fileID: 0}
  m_ScaleInLightmap: 1
  m_ReceiveGI: 1
  m_PreserveUVs: 0
  m_IgnoreNormalsForChartDetection: 0
  m_ImportantGI: 0
  m_StitchLightmapSeams: 1
  m_SelectedEditorRenderState: 3
  m_MinimumChartSize: 4
  m_AutoUVMaxDistance: 0.5
  m_AutoUVMaxAngle: 89
  m_LightmapParameters: {fileID: 0}
  m_SortingLayerID: 0
  m_SortingLayer: 0
  m_SortingOrder: 0
--- !u!135 &8187336203066010212
SphereCollider:
  m_ObjectHideFlags: 0
  m_CorrespondingSourceObject: {fileID: 0}
  m_PrefabInstance: {fileID: 0}
  m_PrefabAsset: {fileID: 0}
  m_GameObject: {fileID: 8187336203066010218}
  m_Material: {fileID: 0}
  m_IsTrigger: 0
  m_Enabled: 1
  serializedVersion: 2
  m_Radius: 0.5
  m_Center: {x: 0, y: 0, z: 0}
